EESchema Schematic File Version 4
EELAYER 30 0
EELAYER END
$Descr A2 23386 16535
encoding utf-8
Sheet 1 1
Title ""
Date ""
Rev ""
Comp ""
Comment1 ""
Comment2 ""
Comment3 ""
Comment4 ""
$EndDescr
Text Notes 1850 800  0    50   ~ 0
USB module
Connection ~ 1400 1200
Wire Wire Line
	1300 1200 1400 1200
$Comp
L Connector:USB_B_Micro J4
U 1 1 61A3E989
P 1100 1400
F 0 "J4" H 1157 1867 50  0000 C CNN
F 1 "USB_B_Micro" H 1157 1776 50  0000 C CNN
F 2 "Connector_USB:USB_Micro-B_Molex_47346-0001" H 1250 1350 50  0001 C CNN
F 3 "~" H 1250 1350 50  0001 C CNN
	1    1100 1400
	1    0    0    -1  
$EndComp
NoConn ~ 1400 1600
NoConn ~ 1000 1800
$Comp
L power:GND #PWR0102
U 1 1 61A6C1EF
P 1100 1800
F 0 "#PWR0102" H 1100 1550 50  0001 C CNN
F 1 "GND" H 1105 1627 50  0000 C CNN
F 2 "" H 1100 1800 50  0001 C CNN
F 3 "" H 1100 1800 50  0001 C CNN
	1    1100 1800
	1    0    0    -1  
$EndComp
$Comp
L power:GND #PWR0104
U 1 1 61A6E92E
P 3250 1400
F 0 "#PWR0104" H 3250 1150 50  0001 C CNN
F 1 "GND" H 3255 1227 50  0000 C CNN
F 2 "" H 3250 1400 50  0001 C CNN
F 3 "" H 3250 1400 50  0001 C CNN
	1    3250 1400
	1    0    0    -1  
$EndComp
Connection ~ 2350 1200
Wire Wire Line
	2350 1200 2550 1200
Wire Wire Line
	2350 1200 2350 1300
$Comp
L power:GND #PWR0105
U 1 1 61A73887
P 2350 1900
F 0 "#PWR0105" H 2350 1650 50  0001 C CNN
F 1 "GND" H 2355 1727 50  0000 C CNN
F 2 "" H 2350 1900 50  0001 C CNN
F 3 "" H 2350 1900 50  0001 C CNN
	1    2350 1900
	1    0    0    -1  
$EndComp
Wire Wire Line
	3900 1150 4600 1150
Wire Wire Line
	5550 1150 5550 1400
Wire Wire Line
	3900 1100 3900 1150
$Comp
L Device:C C2
U 1 1 61A7B574
P 3900 1300
F 0 "C2" H 4015 1346 50  0000 L CNN
F 1 "1u" H 4015 1255 50  0000 L CNN
F 2 "Capacitor_SMD:C_1206_3216Metric" H 3938 1150 50  0001 C CNN
F 3 "~" H 3900 1300 50  0001 C CNN
	1    3900 1300
	1    0    0    -1  
$EndComp
Connection ~ 3900 1150
$Comp
L Device:C C1
U 1 1 61A86B7F
P 2350 1450
F 0 "C1" H 2465 1496 50  0000 L CNN
F 1 "1u" H 2465 1405 50  0000 L CNN
F 2 "Capacitor_SMD:C_1206_3216Metric" H 2388 1300 50  0001 C CNN
F 3 "~" H 2350 1450 50  0001 C CNN
	1    2350 1450
	1    0    0    -1  
$EndComp
Wire Wire Line
	2350 1600 2350 1900
$Comp
L power:GND #PWR0108
U 1 1 61A87DCE
P 3900 1650
F 0 "#PWR0108" H 3900 1400 50  0001 C CNN
F 1 "GND" H 3905 1477 50  0000 C CNN
F 2 "" H 3900 1650 50  0001 C CNN
F 3 "" H 3900 1650 50  0001 C CNN
	1    3900 1650
	1    0    0    -1  
$EndComp
Wire Wire Line
	2950 1200 2950 1100
$Comp
L Regulator_Linear:XC6206PxxxMR U1
U 1 1 61A50004
P 3250 1100
F 0 "U1" H 3250 1342 50  0000 C CNN
F 1 "XC6206P332MR - 3V" H 3250 1251 50  0000 C CNN
F 2 "Package_TO_SOT_SMD:SOT-23" H 3250 1325 50  0001 C CIN
F 3 "https://www.torexsemi.com/file/xc6206/XC6206.pdf" H 3250 1100 50  0001 C CNN
	1    3250 1100
	1    0    0    -1  
$EndComp
$Comp
L Device:LED D1
U 1 1 61A9A935
P 4750 1150
F 0 "D1" H 4743 895 50  0000 C CNN
F 1 "GREEN" H 4743 986 50  0000 C CNN
F 2 "LED_SMD:LED_0805_2012Metric" H 4750 1150 50  0001 C CNN
F 3 "~" H 4750 1150 50  0001 C CNN
	1    4750 1150
	-1   0    0    1   
$EndComp
Wire Wire Line
	4900 1150 5550 1150
$Comp
L Device:R R1
U 1 1 61A9C090
P 5550 1550
F 0 "R1" H 5620 1596 50  0000 L CNN
F 1 "1k5" H 5620 1505 50  0000 L CNN
F 2 "Resistor_SMD:R_1206_3216Metric" V 5480 1550 50  0001 C CNN
F 3 "~" H 5550 1550 50  0001 C CNN
	1    5550 1550
	1    0    0    -1  
$EndComp
Wire Wire Line
	5550 1700 5550 1900
$Comp
L power:GND #PWR0101
U 1 1 61A9DCF2
P 5550 1900
F 0 "#PWR0101" H 5550 1650 50  0001 C CNN
F 1 "GND" H 5555 1727 50  0000 C CNN
F 2 "" H 5550 1900 50  0001 C CNN
F 3 "" H 5550 1900 50  0001 C CNN
	1    5550 1900
	1    0    0    -1  
$EndComp
Wire Wire Line
	1400 1200 1750 1200
Connection ~ 1750 1200
Wire Wire Line
	1750 1200 1950 1200
Wire Wire Line
	1750 1200 1750 1050
Connection ~ 3900 1100
Wire Wire Line
	3900 950  3900 1100
$Comp
L power:+5V #PWR0103
U 1 1 61AA0F22
P 1750 1050
F 0 "#PWR0103" H 1750 900 50  0001 C CNN
F 1 "+5V" H 1765 1223 50  0000 C CNN
F 2 "" H 1750 1050 50  0001 C CNN
F 3 "" H 1750 1050 50  0001 C CNN
	1    1750 1050
	1    0    0    -1  
$EndComp
$Comp
L power:+3.3V #PWR0106
U 1 1 61AA1590
P 3900 950
F 0 "#PWR0106" H 3900 800 50  0001 C CNN
F 1 "+3.3V" H 3915 1123 50  0000 C CNN
F 2 "" H 3900 950 50  0001 C CNN
F 3 "" H 3900 950 50  0001 C CNN
	1    3900 950 
	1    0    0    -1  
$EndComp
Connection ~ 2550 1200
Wire Wire Line
	2550 1200 2950 1200
Wire Wire Line
	2550 1200 2550 1050
$Comp
L power:VCC #PWR0107
U 1 1 61AA3064
P 2550 1050
F 0 "#PWR0107" H 2550 900 50  0001 C CNN
F 1 "VCC" H 2565 1223 50  0000 C CNN
F 2 "" H 2550 1050 50  0001 C CNN
F 3 "" H 2550 1050 50  0001 C CNN
	1    2550 1050
	1    0    0    -1  
$EndComp
$Comp
L Device:Ferrite_Bead FB1
U 1 1 61AA426C
P 2100 1200
F 0 "FB1" V 1826 1200 50  0000 C CNN
F 1 "100R" V 1917 1200 50  0000 C CNN
F 2 "Ferrite_THT:LairdTech_28C0236-0JW-10" V 2030 1200 50  0001 C CNN
F 3 "~" H 2100 1200 50  0001 C CNN
	1    2100 1200
	0    1    1    0   
$EndComp
Wire Wire Line
	2250 1200 2350 1200
Wire Wire Line
	3550 1100 3900 1100
Wire Wire Line
	3900 1450 3900 1650
$Comp
L power:+3.3V #PWR0109
U 1 1 61AF14B2
P 6650 1050
F 0 "#PWR0109" H 6650 900 50  0001 C CNN
F 1 "+3.3V" V 6665 1178 50  0000 L CNN
F 2 "" H 6650 1050 50  0001 C CNN
F 3 "" H 6650 1050 50  0001 C CNN
	1    6650 1050
	0    -1   -1   0   
$EndComp
Wire Wire Line
	6650 1050 6850 1050
$Comp
L Device:C C5
U 1 1 61AFB1D3
P 6850 1200
F 0 "C5" H 6965 1246 50  0000 L CNN
F 1 "100nF" H 6965 1155 50  0000 L CNN
F 2 "Capacitor_SMD:C_1206_3216Metric" H 6888 1050 50  0001 C CNN
F 3 "~" H 6850 1200 50  0001 C CNN
	1    6850 1200
	1    0    0    -1  
$EndComp
Connection ~ 6850 1050
Wire Wire Line
	6850 1050 7350 1050
Wire Wire Line
	7350 1350 6850 1350
$Comp
L Device:C C6
U 1 1 61B043B8
P 7350 1200
F 0 "C6" H 7465 1246 50  0000 L CNN
F 1 "1uF" H 7465 1155 50  0000 L CNN
F 2 "Capacitor_SMD:C_1206_3216Metric" H 7388 1050 50  0001 C CNN
F 3 "~" H 7350 1200 50  0001 C CNN
	1    7350 1200
	1    0    0    -1  
$EndComp
Wire Wire Line
	6850 1350 6750 1350
Wire Wire Line
	6750 1350 6750 1450
Connection ~ 6850 1350
$Comp
L power:GND #PWR0110
U 1 1 61B06D93
P 6750 1450
F 0 "#PWR0110" H 6750 1200 50  0001 C CNN
F 1 "GND" H 6755 1277 50  0000 C CNN
F 2 "" H 6750 1450 50  0001 C CNN
F 3 "" H 6750 1450 50  0001 C CNN
	1    6750 1450
	1    0    0    -1  
$EndComp
$Comp
L power:+3.3V #PWR0111
U 1 1 61B0FAD5
P 8200 1050
F 0 "#PWR0111" H 8200 900 50  0001 C CNN
F 1 "+3.3V" V 8215 1178 50  0000 L CNN
F 2 "" H 8200 1050 50  0001 C CNN
F 3 "" H 8200 1050 50  0001 C CNN
	1    8200 1050
	0    -1   -1   0   
$EndComp
Wire Wire Line
	8200 1050 8400 1050
$Comp
L Device:C C7
U 1 1 61B0FADC
P 8400 1200
F 0 "C7" H 8515 1246 50  0000 L CNN
F 1 "100nF" H 8515 1155 50  0000 L CNN
F 2 "Capacitor_SMD:C_1206_3216Metric" H 8438 1050 50  0001 C CNN
F 3 "~" H 8400 1200 50  0001 C CNN
	1    8400 1200
	1    0    0    -1  
$EndComp
Connection ~ 8400 1050
Wire Wire Line
	8400 1050 8900 1050
Wire Wire Line
	8900 1350 8400 1350
$Comp
L Device:C C8
U 1 1 61B0FAE5
P 8900 1200
F 0 "C8" H 9015 1246 50  0000 L CNN
F 1 "100nF" H 9015 1155 50  0000 L CNN
F 2 "Capacitor_SMD:C_1206_3216Metric" H 8938 1050 50  0001 C CNN
F 3 "~" H 8900 1200 50  0001 C CNN
	1    8900 1200
	1    0    0    -1  
$EndComp
Wire Wire Line
	8400 1350 8300 1350
Wire Wire Line
	8300 1350 8300 1450
Connection ~ 8400 1350
$Comp
L power:GND #PWR0112
U 1 1 61B0FAEE
P 8300 1450
F 0 "#PWR0112" H 8300 1200 50  0001 C CNN
F 1 "GND" H 8305 1277 50  0000 C CNN
F 2 "" H 8300 1450 50  0001 C CNN
F 3 "" H 8300 1450 50  0001 C CNN
	1    8300 1450
	1    0    0    -1  
$EndComp
Wire Wire Line
	8900 1050 9400 1050
Wire Wire Line
	9400 1350 8900 1350
$Comp
L Device:C C9
U 1 1 61B120D3
P 9400 1200
F 0 "C9" H 9515 1246 50  0000 L CNN
F 1 "100nF" H 9515 1155 50  0000 L CNN
F 2 "Capacitor_SMD:C_1206_3216Metric" H 9438 1050 50  0001 C CNN
F 3 "~" H 9400 1200 50  0001 C CNN
	1    9400 1200
	1    0    0    -1  
$EndComp
Wire Wire Line
	9400 1050 9900 1050
Wire Wire Line
	9900 1350 9400 1350
$Comp
L Device:C C10
U 1 1 61B1395B
P 9900 1200
F 0 "C10" H 10015 1246 50  0000 L CNN
F 1 "100nF" H 10015 1155 50  0000 L CNN
F 2 "Capacitor_SMD:C_1206_3216Metric" H 9938 1050 50  0001 C CNN
F 3 "~" H 9900 1200 50  0001 C CNN
	1    9900 1200
	1    0    0    -1  
$EndComp
Wire Wire Line
	9900 1050 10400 1050
Wire Wire Line
	10400 1350 9900 1350
$Comp
L Device:C C11
U 1 1 61B14F99
P 10400 1200
F 0 "C11" H 10515 1246 50  0000 L CNN
F 1 "4.7uF" H 10515 1155 50  0000 L CNN
F 2 "Capacitor_SMD:C_1206_3216Metric" H 10438 1050 50  0001 C CNN
F 3 "~" H 10400 1200 50  0001 C CNN
	1    10400 1200
	1    0    0    -1  
$EndComp
Text Notes 7300 850  0    50   ~ 0
Decoupling
Wire Notes Line
	800  700  800  2200
Wire Notes Line
	800  2200 5950 2200
Wire Notes Line
	5950 2200 5950 700 
Wire Notes Line
	5950 700  800  700 
Wire Notes Line
	6150 700  6150 1800
Wire Notes Line
	6150 1800 10850 1800
Wire Notes Line
	10850 1800 10850 700 
Wire Notes Line
	10850 700  6150 700 
Wire Wire Line
	2300 2650 2300 2750
$Comp
L Device:LED_ALT D2
U 1 1 61B42513
P 2300 2500
F 0 "D2" V 2339 2382 50  0000 R CNN
F 1 "GREEN" V 2248 2382 50  0000 R CNN
F 2 "LED_SMD:LED_0805_2012Metric" H 2300 2500 50  0001 C CNN
F 3 "~" H 2300 2500 50  0001 C CNN
	1    2300 2500
	0    -1   -1   0   
$EndComp
Wire Wire Line
	2000 2350 2300 2350
Text GLabel 2000 2350 0    50   Input ~ 0
LED0
$Comp
L 74xx:74HC595 U4
U 1 1 61A3DFFE
P 5600 7400
F 0 "U4" H 5600 8181 50  0000 C CNN
F 1 "74HC595 - shift register toggle switch" H 5600 8090 50  0000 C CNN
F 2 "Package_DIP:DIP-16_W7.62mm" H 5600 7400 50  0001 C CNN
F 3 "http://www.ti.com/lit/ds/symlink/sn74hc595.pdf" H 5600 7400 50  0001 C CNN
	1    5600 7400
	1    0    0    -1  
$EndComp
$Comp
L power:GND #PWR0113
U 1 1 61B4B417
P 2600 3050
F 0 "#PWR0113" H 2600 2800 50  0001 C CNN
F 1 "GND" V 2605 2922 50  0000 R CNN
F 2 "" H 2600 3050 50  0001 C CNN
F 3 "" H 2600 3050 50  0001 C CNN
	1    2600 3050
	0    -1   -1   0   
$EndComp
Wire Wire Line
	2300 3050 2600 3050
$Comp
L Device:R R3
U 1 1 61B48B1E
P 2300 2900
F 0 "R3" H 2370 2946 50  0000 L CNN
F 1 "75" H 2370 2855 50  0000 L CNN
F 2 "Resistor_SMD:R_1206_3216Metric" V 2230 2900 50  0001 C CNN
F 3 "~" H 2300 2900 50  0001 C CNN
	1    2300 2900
	1    0    0    -1  
$EndComp
Text GLabel 2850 3550 2    50   Input ~ 0
LED0
Text GLabel 2850 4950 2    50   Input ~ 0
SWDCLK
Text GLabel 2850 4850 2    50   Input ~ 0
SWDIO
$Comp
L power:GND #PWR0114
U 1 1 61B3A760
P 2000 7200
F 0 "#PWR0114" H 2000 6950 50  0001 C CNN
F 1 "GND" H 2005 7027 50  0000 C CNN
F 2 "" H 2000 7200 50  0001 C CNN
F 3 "" H 2000 7200 50  0001 C CNN
	1    2000 7200
	1    0    0    -1  
$EndComp
Wire Wire Line
	2350 7000 2250 7000
Connection ~ 2350 7000
Wire Wire Line
	2350 6950 2350 7000
Wire Wire Line
	2250 7000 2150 7000
Connection ~ 2250 7000
Wire Wire Line
	2250 6950 2250 7000
Wire Wire Line
	2150 7000 2050 7000
Connection ~ 2150 7000
Wire Wire Line
	2150 6950 2150 7000
Wire Wire Line
	2050 7000 2000 7000
Connection ~ 2050 7000
Wire Wire Line
	2050 6950 2050 7000
Wire Wire Line
	2000 7000 2000 7200
Wire Wire Line
	2450 7000 2350 7000
Wire Wire Line
	2450 6950 2450 7000
$Comp
L power:GND #PWR0115
U 1 1 61B2FD74
P 1100 4300
F 0 "#PWR0115" H 1100 4050 50  0001 C CNN
F 1 "GND" H 1105 4127 50  0000 C CNN
F 2 "" H 1100 4300 50  0001 C CNN
F 3 "" H 1100 4300 50  0001 C CNN
	1    1100 4300
	1    0    0    -1  
$EndComp
Wire Wire Line
	1250 4300 1100 4300
Wire Wire Line
	1250 4200 1250 4300
$Comp
L Device:R R2
U 1 1 61B2D675
P 1250 4050
F 0 "R2" H 1320 4096 50  0000 L CNN
F 1 "10K" H 1320 4005 50  0000 L CNN
F 2 "Resistor_SMD:R_1206_3216Metric" V 1180 4050 50  0001 C CNN
F 3 "~" H 1250 4050 50  0001 C CNN
	1    1250 4050
	1    0    0    -1  
$EndComp
Wire Wire Line
	1250 3750 1550 3750
Connection ~ 1250 3750
Wire Wire Line
	1250 3750 1250 3900
Wire Wire Line
	1100 3750 1250 3750
$Comp
L power:+3.3V #PWR0116
U 1 1 61B242EF
P 700 3250
F 0 "#PWR0116" H 700 3100 50  0001 C CNN
F 1 "+3.3V" H 715 3423 50  0000 C CNN
F 2 "" H 700 3250 50  0001 C CNN
F 3 "" H 700 3250 50  0001 C CNN
	1    700  3250
	1    0    0    -1  
$EndComp
Wire Wire Line
	700  3750 700  3250
$Comp
L Switch:SW_Push SW1
U 1 1 61B2161D
P 900 3750
F 0 "SW1" H 900 4035 50  0000 C CNN
F 1 "SW_Push" H 900 3944 50  0000 C CNN
F 2 "Button_Switch_SMD:SW_Push_1P1T-MP_NO_Horizontal_Alps_SKRTLAE010" H 900 3950 50  0001 C CNN
F 3 "~" H 900 3950 50  0001 C CNN
	1    900  3750
	1    0    0    -1  
$EndComp
$Comp
L power:GND #PWR0117
U 1 1 61AEB47D
P 550 4850
F 0 "#PWR0117" H 550 4600 50  0001 C CNN
F 1 "GND" H 555 4677 50  0000 C CNN
F 2 "" H 550 4850 50  0001 C CNN
F 3 "" H 550 4850 50  0001 C CNN
	1    550  4850
	1    0    0    -1  
$EndComp
Wire Wire Line
	600  4800 600  5050
Connection ~ 600  4800
Wire Wire Line
	550  4800 550  4850
Wire Wire Line
	600  4800 550  4800
Wire Wire Line
	600  4650 600  4800
Wire Wire Line
	650  5050 600  5050
Wire Wire Line
	650  4650 600  4650
Wire Wire Line
	950  5050 1050 5050
Wire Wire Line
	950  4650 1050 4650
Connection ~ 1050 5050
Connection ~ 1050 4650
$Comp
L Device:C C4
U 1 1 61AE1660
P 800 5050
F 0 "C4" V 548 5050 50  0000 C CNN
F 1 "20pF" V 639 5050 50  0000 C CNN
F 2 "Capacitor_SMD:C_1206_3216Metric" H 838 4900 50  0001 C CNN
F 3 "~" H 800 5050 50  0001 C CNN
	1    800  5050
	0    1    1    0   
$EndComp
$Comp
L Device:C C3
U 1 1 61ADD3F6
P 800 4650
F 0 "C3" V 548 4650 50  0000 C CNN
F 1 "20pF" V 639 4650 50  0000 C CNN
F 2 "Capacitor_SMD:C_1206_3216Metric" H 838 4500 50  0001 C CNN
F 3 "~" H 800 4650 50  0001 C CNN
	1    800  4650
	0    1    1    0   
$EndComp
Wire Wire Line
	1400 4950 1550 4950
Wire Wire Line
	1400 5050 1400 4950
Wire Wire Line
	1050 5050 1400 5050
Wire Wire Line
	1050 4650 1050 4750
Wire Wire Line
	1250 4650 1050 4650
Wire Wire Line
	1250 4850 1250 4650
$Comp
L Device:Crystal Y1
U 1 1 61AD0C47
P 1050 4900
F 0 "Y1" V 1004 5031 50  0000 L CNN
F 1 "16MHz" V 1095 5031 50  0000 L CNN
F 2 "Crystal:Crystal_SMD_7050-2Pin_7.0x5.0mm" H 1050 4900 50  0001 C CNN
F 3 "~" H 1050 4900 50  0001 C CNN
	1    1050 4900
	0    1    1    0   
$EndComp
Wire Wire Line
	1550 4850 1250 4850
$Comp
L power:+3.3V #PWR0118
U 1 1 61ACDD1E
P 1500 3150
F 0 "#PWR0118" H 1500 3000 50  0001 C CNN
F 1 "+3.3V" V 1515 3278 50  0000 L CNN
F 2 "" H 1500 3150 50  0001 C CNN
F 3 "" H 1500 3150 50  0001 C CNN
	1    1500 3150
	0    -1   -1   0   
$EndComp
Wire Wire Line
	2150 3150 2250 3150
Connection ~ 2150 3150
Wire Wire Line
	2150 3350 2150 3150
Wire Wire Line
	2250 3150 2350 3150
Connection ~ 2250 3150
Wire Wire Line
	2250 3350 2250 3150
Connection ~ 2350 3150
Wire Wire Line
	1500 3150 2150 3150
Wire Wire Line
	2350 3150 2350 3350
Wire Wire Line
	2450 3150 2350 3150
Wire Wire Line
	2450 3350 2450 3150
$Comp
L MCU_ST_STM32F7:STM32F722RETx U5
U 1 1 61A34C61
P 2250 5150
F 0 "U5" H 2200 7131 50  0000 C CNN
F 1 "STM32F722RETx" H 2200 7040 50  0000 C CNN
F 2 "Package_QFP:LQFP-64_10x10mm_P0.5mm" H 1650 3450 50  0001 R CNN
F 3 "http://www.st.com/st-web-ui/static/active/en/resource/technical/document/datasheet/DM00330506.pdf" H 2250 5150 50  0001 C CNN
	1    2250 5150
	1    0    0    -1  
$EndComp
Text GLabel 3600 4650 2    50   Input ~ 0
USB_D-
Text GLabel 3600 4750 2    50   Input ~ 0
USB_D+
Wire Wire Line
	2850 4650 2900 4650
$Comp
L Device:R R4
U 1 1 61B8509E
P 3050 4650
F 0 "R4" V 2843 4650 50  0000 C CNN
F 1 "22" V 2934 4650 50  0000 C CNN
F 2 "Resistor_SMD:R_1206_3216Metric" V 2980 4650 50  0001 C CNN
F 3 "~" H 3050 4650 50  0001 C CNN
	1    3050 4650
	0    1    1    0   
$EndComp
$Comp
L Device:R R5
U 1 1 61B85C88
P 3300 4750
F 0 "R5" V 3507 4750 50  0000 C CNN
F 1 "22" V 3416 4750 50  0000 C CNN
F 2 "Resistor_SMD:R_1206_3216Metric" V 3230 4750 50  0001 C CNN
F 3 "~" H 3300 4750 50  0001 C CNN
	1    3300 4750
	0    -1   -1   0   
$EndComp
Wire Wire Line
	3200 4650 3600 4650
Wire Wire Line
	3600 4750 3450 4750
Wire Wire Line
	2850 4750 3150 4750
$Comp
L 74xx:74HC595 U2
U 1 1 61AE5840
P 5450 3650
F 0 "U2" H 5450 4431 50  0000 C CNN
F 1 "74HC595 LED driver 1" H 5450 4340 50  0000 C CNN
F 2 "Package_DIP:DIP-16_W7.62mm" H 5450 3650 50  0001 C CNN
F 3 "http://www.ti.com/lit/ds/symlink/sn74hc595.pdf" H 5450 3650 50  0001 C CNN
	1    5450 3650
	1    0    0    -1  
$EndComp
Text GLabel 2850 4050 2    50   Input ~ 0
SPI1_SCK
Text GLabel 2850 4250 2    50   Input ~ 0
SPI1_MOSI
Text GLabel 2850 6250 2    50   Input ~ 0
SPI2_SCK
Text GLabel 1550 5550 0    50   Input ~ 0
SPI2_MISO
Text GLabel 1550 5750 0    50   Input ~ 0
U1_LATCH
Text GLabel 2850 5250 2    50   Input ~ 0
U2_LATCH
Text GLabel 2850 5350 2    50   Input ~ 0
U3_LATCH
Text GLabel 5050 3450 0    50   Input ~ 0
SPI1_SCK
$Comp
L power:+3.3V #PWR0119
U 1 1 61AFA7A0
P 5050 3550
F 0 "#PWR0119" H 5050 3400 50  0001 C CNN
F 1 "+3.3V" V 5065 3678 50  0000 L CNN
F 2 "" H 5050 3550 50  0001 C CNN
F 3 "" H 5050 3550 50  0001 C CNN
	1    5050 3550
	0    -1   -1   0   
$EndComp
Text GLabel 5050 3250 0    50   Input ~ 0
SPI1_MOSI
Text GLabel 5050 3750 0    50   Input ~ 0
U1_LATCH
Text GLabel 5150 5050 0    50   Input ~ 0
SPI1_MOSI
Text GLabel 5150 5250 0    50   Input ~ 0
SPI1_SCK
Text GLabel 5150 5550 0    50   Input ~ 0
U2_LATCH
Text GLabel 5200 7000 0    50   Input ~ 0
SPI2_MISO
Text GLabel 5200 7200 0    50   Input ~ 0
SPI2_SCK
Text GLabel 5200 7500 0    50   Input ~ 0
U3_LATCH
$Comp
L power:+3.3V #PWR0120
U 1 1 61B03B2D
P 5150 5350
F 0 "#PWR0120" H 5150 5200 50  0001 C CNN
F 1 "+3.3V" V 5165 5478 50  0000 L CNN
F 2 "" H 5150 5350 50  0001 C CNN
F 3 "" H 5150 5350 50  0001 C CNN
	1    5150 5350
	0    -1   -1   0   
$EndComp
$Comp
L power:+3.3V #PWR0121
U 1 1 61B04BBB
P 5200 7300
F 0 "#PWR0121" H 5200 7150 50  0001 C CNN
F 1 "+3.3V" V 5215 7428 50  0000 L CNN
F 2 "" H 5200 7300 50  0001 C CNN
F 3 "" H 5200 7300 50  0001 C CNN
	1    5200 7300
	0    -1   -1   0   
$EndComp
$Comp
L 74xx:74HC595 U3
U 1 1 61AE583A
P 5550 5450
F 0 "U3" H 5550 6231 50  0000 C CNN
F 1 "74HC595 Led Driver 2" H 5550 6140 50  0000 C CNN
F 2 "Package_DIP:DIP-16_W7.62mm" H 5550 5450 50  0001 C CNN
F 3 "http://www.ti.com/lit/ds/symlink/sn74hc595.pdf" H 5550 5450 50  0001 C CNN
	1    5550 5450
	1    0    0    -1  
$EndComp
Text GLabel 7250 2650 0    50   Input ~ 0
LED1-R
Wire Wire Line
	7250 2850 7400 2850
$Comp
L Device:R R6
U 1 1 61B64BE0
P 7550 2650
F 0 "R6" H 7620 2696 50  0000 L CNN
F 1 "120" H 7620 2605 50  0000 L CNN
F 2 "Resistor_SMD:R_1206_3216Metric" V 7480 2650 50  0001 C CNN
F 3 "~" H 7550 2650 50  0001 C CNN
	1    7550 2650
	0    -1   -1   0   
$EndComp
Wire Wire Line
	7700 2850 7950 2850
Text GLabel 7250 2450 0    50   Input ~ 0
LED1-G
Wire Wire Line
	7250 2650 7400 2650
$Comp
L Device:R R7
U 1 1 61B77E7C
P 7550 2850
F 0 "R7" H 7620 2896 50  0000 L CNN
F 1 "35" H 7620 2805 50  0000 L CNN
F 2 "Resistor_SMD:R_1206_3216Metric" V 7480 2850 50  0001 C CNN
F 3 "~" H 7550 2850 50  0001 C CNN
	1    7550 2850
	0    -1   -1   0   
$EndComp
Wire Wire Line
	7700 2650 7950 2650
Text GLabel 7250 2850 0    50   Input ~ 0
LED1-B
Wire Wire Line
	7250 2450 7400 2450
$Comp
L Device:R R8
U 1 1 61B7A97A
P 7550 2450
F 0 "R8" H 7620 2496 50  0000 L CNN
F 1 "35" H 7620 2405 50  0000 L CNN
F 2 "Resistor_SMD:R_1206_3216Metric" V 7480 2450 50  0001 C CNN
F 3 "~" H 7550 2450 50  0001 C CNN
	1    7550 2450
	0    -1   -1   0   
$EndComp
Wire Wire Line
	7700 2450 7950 2450
Wire Wire Line
	5450 3050 4800 3050
Wire Wire Line
	5550 4850 4800 4850
Wire Wire Line
	5600 6800 4750 6800
$Comp
L power:+3.3V #PWR0122
U 1 1 61B9ADB1
P 4800 3050
F 0 "#PWR0122" H 4800 2900 50  0001 C CNN
F 1 "+3.3V" V 4815 3178 50  0000 L CNN
F 2 "" H 4800 3050 50  0001 C CNN
F 3 "" H 4800 3050 50  0001 C CNN
	1    4800 3050
	0    -1   -1   0   
$EndComp
$Comp
L power:+3.3V #PWR0123
U 1 1 61B9BE03
P 4800 4850
F 0 "#PWR0123" H 4800 4700 50  0001 C CNN
F 1 "+3.3V" V 4815 4978 50  0000 L CNN
F 2 "" H 4800 4850 50  0001 C CNN
F 3 "" H 4800 4850 50  0001 C CNN
	1    4800 4850
	0    -1   -1   0   
$EndComp
$Comp
L power:+3.3V #PWR0124
U 1 1 61B9C549
P 4750 6800
F 0 "#PWR0124" H 4750 6650 50  0001 C CNN
F 1 "+3.3V" V 4765 6928 50  0000 L CNN
F 2 "" H 4750 6800 50  0001 C CNN
F 3 "" H 4750 6800 50  0001 C CNN
	1    4750 6800
	0    -1   -1   0   
$EndComp
Wire Wire Line
	8350 2650 8450 2650
$Comp
L power:GND #PWR0125
U 1 1 61BA87BC
P 8850 2650
F 0 "#PWR0125" H 8850 2400 50  0001 C CNN
F 1 "GND" V 8855 2522 50  0000 R CNN
F 2 "" H 8850 2650 50  0001 C CNN
F 3 "" H 8850 2650 50  0001 C CNN
	1    8850 2650
	0    -1   -1   0   
$EndComp
Text GLabel 5850 3250 2    50   Input ~ 0
LED1-B
Text GLabel 5850 3350 2    50   Input ~ 0
LED1-G
Text GLabel 5850 3450 2    50   Input ~ 0
LED1-R
Wire Notes Line
	6800 2100 6800 3150
Wire Notes Line
	6800 3150 9300 3150
Wire Notes Line
	9300 3150 9300 2100
Wire Notes Line
	9300 2100 6800 2100
Text Notes 6900 2250 0    50   ~ 0
LED1 RGB
Text GLabel 5850 3550 2    50   Input ~ 0
LED2-B
Text GLabel 5850 3650 2    50   Input ~ 0
LED2-G
Text GLabel 5850 3750 2    50   Input ~ 0
LED2-R
Text GLabel 5950 5050 2    50   Input ~ 0
LED3-B
Text GLabel 5950 5150 2    50   Input ~ 0
LED3-G
Text GLabel 5950 5250 2    50   Input ~ 0
LED3-R
Text GLabel 5950 5350 2    50   Input ~ 0
LED4-B
Text GLabel 5950 5450 2    50   Input ~ 0
LED4-G
Text GLabel 5950 5550 2    50   Input ~ 0
LED4-R
Text Notes 8850 3000 0    50   ~ 0
C784540
Text GLabel 6000 7000 2    50   Input ~ 0
TOGGLE1
Text GLabel 6000 7100 2    50   Input ~ 0
TOGGLE2
Text GLabel 6000 7200 2    50   Input ~ 0
TOGGLE3
Text GLabel 6000 7300 2    50   Input ~ 0
TOGGLE4
Text GLabel 6000 7400 2    50   Input ~ 0
TOGGLE5
Text GLabel 6000 7500 2    50   Input ~ 0
TOGGLE6
Text GLabel 6000 7600 2    50   Input ~ 0
TOGGLE7
Text GLabel 6000 7700 2    50   Input ~ 0
TOGGLE8
NoConn ~ 5850 3850
NoConn ~ 5850 3950
NoConn ~ 5850 4150
NoConn ~ 5950 5650
NoConn ~ 5950 5750
NoConn ~ 5950 5950
NoConn ~ 6000 7900
$Comp
L Connector:Conn_01x20_Male J1
U 1 1 61D34A39
P 7900 8250
F 0 "J1" H 8008 9331 50  0000 C CNN
F 1 "Conn_01x20_Male" H 8008 9240 50  0000 C CNN
F 2 "Connector_PinHeader_2.54mm:PinHeader_1x20_P2.54mm_Vertical" H 7900 8250 50  0001 C CNN
F 3 "~" H 7900 8250 50  0001 C CNN
	1    7900 8250
	1    0    0    -1  
$EndComp
Text GLabel 2850 3650 2    50   Input ~ 0
PIN1
Text GLabel 2850 3750 2    50   Input ~ 0
PIN2
Text GLabel 2850 3850 2    50   Input ~ 0
PIN3
Text GLabel 2850 3950 2    50   Input ~ 0
PIN4
Text GLabel 2850 4150 2    50   Input ~ 0
PIN5
Text GLabel 2850 4350 2    50   Input ~ 0
PIN6
Text GLabel 2850 4450 2    50   Input ~ 0
PIN7
Text GLabel 2850 4550 2    50   Input ~ 0
PIN8
Text GLabel 2850 5050 2    50   Input ~ 0
PIN9
Text GLabel 2850 5450 2    50   Input ~ 0
PIN10
Text GLabel 2850 5550 2    50   Input ~ 0
PIN11
Text GLabel 2850 5650 2    50   Input ~ 0
PIN12
Text GLabel 2850 5750 2    50   Input ~ 0
PIN13
Text GLabel 2850 5850 2    50   Input ~ 0
PIN14
Text GLabel 2850 5950 2    50   Input ~ 0
PIN15
Text GLabel 2850 6050 2    50   Input ~ 0
PIN16
Text GLabel 2850 6150 2    50   Input ~ 0
PIN17
Text GLabel 2850 6350 2    50   Input ~ 0
PIN18
Text GLabel 2850 6450 2    50   Input ~ 0
PIN19
Text GLabel 2850 6550 2    50   Input ~ 0
PIN20
Text GLabel 2850 6650 2    50   Input ~ 0
PIN21
Text GLabel 2850 6750 2    50   Input ~ 0
PIN22
Text GLabel 8100 7350 2    50   Input ~ 0
PIN1
Text GLabel 8100 7450 2    50   Input ~ 0
PIN2
Text GLabel 8100 7550 2    50   Input ~ 0
PIN3
Text GLabel 8100 7650 2    50   Input ~ 0
PIN4
Text GLabel 8100 7750 2    50   Input ~ 0
PIN5
Text GLabel 8100 7850 2    50   Input ~ 0
PIN6
Text GLabel 8100 7950 2    50   Input ~ 0
PIN7
Text GLabel 8100 8050 2    50   Input ~ 0
PIN8
Text GLabel 8100 8150 2    50   Input ~ 0
PIN9
Text GLabel 8100 8250 2    50   Input ~ 0
PIN10
Text GLabel 8100 8350 2    50   Input ~ 0
PIN11
Text GLabel 8100 8450 2    50   Input ~ 0
PIN12
Text GLabel 8100 8550 2    50   Input ~ 0
PIN13
Text GLabel 8100 8650 2    50   Input ~ 0
PIN14
Text GLabel 8100 8750 2    50   Input ~ 0
PIN15
Text GLabel 8100 8850 2    50   Input ~ 0
PIN16
Text GLabel 8100 8950 2    50   Input ~ 0
PIN17
Text GLabel 8100 9050 2    50   Input ~ 0
PIN18
Text GLabel 8100 9150 2    50   Input ~ 0
PIN19
Text GLabel 8100 9250 2    50   Input ~ 0
PIN20
Text GLabel 9200 7500 2    50   Input ~ 0
PIN21
Text GLabel 9200 7600 2    50   Input ~ 0
PIN22
Text GLabel 1550 5350 0    50   Input ~ 0
PIN23
Text GLabel 1550 5450 0    50   Input ~ 0
PIN24
Text GLabel 1550 5650 0    50   Input ~ 0
PIN25
Text GLabel 1550 5850 0    50   Input ~ 0
PIN26
Text GLabel 1550 5950 0    50   Input ~ 0
PIN27
Text GLabel 1550 6050 0    50   Input ~ 0
PIN28
Text GLabel 1550 6150 0    50   Input ~ 0
PIN29
Text GLabel 1550 6250 0    50   Input ~ 0
PIN30
Text GLabel 1550 6350 0    50   Input ~ 0
PIN31
Text GLabel 1550 6450 0    50   Input ~ 0
PIN32
Text GLabel 1550 6550 0    50   Input ~ 0
PIN33
Text GLabel 1550 6650 0    50   Input ~ 0
PIN34
Text GLabel 1550 6750 0    50   Input ~ 0
PIN35
Text GLabel 9200 7700 2    50   Input ~ 0
PIN23
Text GLabel 9200 7800 2    50   Input ~ 0
PIN24
Text GLabel 9200 7900 2    50   Input ~ 0
PIN25
Text GLabel 9200 8000 2    50   Input ~ 0
PIN26
Text GLabel 9200 8100 2    50   Input ~ 0
PIN27
Text GLabel 9200 8200 2    50   Input ~ 0
PIN28
Text GLabel 9200 8300 2    50   Input ~ 0
PIN29
Text GLabel 9200 8400 2    50   Input ~ 0
PIN30
Text GLabel 9200 8500 2    50   Input ~ 0
PIN31
Text GLabel 9200 8600 2    50   Input ~ 0
PIN32
Text GLabel 9200 8700 2    50   Input ~ 0
PIN33
Text GLabel 9200 8800 2    50   Input ~ 0
PIN34
$Comp
L power:GND #PWR0130
U 1 1 61DB89BA
P 9200 9400
F 0 "#PWR0130" H 9200 9150 50  0001 C CNN
F 1 "GND" V 9205 9272 50  0000 R CNN
F 2 "" H 9200 9400 50  0001 C CNN
F 3 "" H 9200 9400 50  0001 C CNN
	1    9200 9400
	0    -1   -1   0   
$EndComp
$Comp
L power:+5V #PWR0131
U 1 1 61DB9CB2
P 9200 9300
F 0 "#PWR0131" H 9200 9150 50  0001 C CNN
F 1 "+5V" V 9215 9428 50  0000 L CNN
F 2 "" H 9200 9300 50  0001 C CNN
F 3 "" H 9200 9300 50  0001 C CNN
	1    9200 9300
	0    1    1    0   
$EndComp
$Comp
L power:+3.3V #PWR0132
U 1 1 61DBA72C
P 9200 9200
F 0 "#PWR0132" H 9200 9050 50  0001 C CNN
F 1 "+3.3V" V 9215 9328 50  0000 L CNN
F 2 "" H 9200 9200 50  0001 C CNN
F 3 "" H 9200 9200 50  0001 C CNN
	1    9200 9200
	0    1    1    0   
$EndComp
$Comp
L Connector:Screw_Terminal_01x05 J5
U 1 1 61ED67DD
P 10850 8600
F 0 "J5" H 10768 8175 50  0000 C CNN
F 1 "Screw_Terminal_01x05" H 10768 8266 50  0000 C CNN
F 2 "TerminalBlock:TerminalBlock_bornier-5_P5.08mm" H 10850 8600 50  0001 C CNN
F 3 "~" H 10850 8600 50  0001 C CNN
	1    10850 8600
	-1   0    0    1   
$EndComp
$Comp
L Connector:Screw_Terminal_01x05 J6
U 1 1 61EDC3D0
P 10850 9400
F 0 "J6" H 10768 8975 50  0000 C CNN
F 1 "Screw_Terminal_01x05" H 10768 9066 50  0000 C CNN
F 2 "TerminalBlock:TerminalBlock_bornier-5_P5.08mm" H 10850 9400 50  0001 C CNN
F 3 "~" H 10850 9400 50  0001 C CNN
	1    10850 9400
	-1   0    0    1   
$EndComp
Text GLabel 11050 8400 2    50   Input ~ 0
TOGGLE1
Text GLabel 11050 8500 2    50   Input ~ 0
TOGGLE2
Text GLabel 11050 8600 2    50   Input ~ 0
TOGGLE3
Text GLabel 11050 8700 2    50   Input ~ 0
TOGGLE4
Text GLabel 11050 8800 2    50   Input ~ 0
TOGGLE5
Text GLabel 11050 9200 2    50   Input ~ 0
TOGGLE6
Text GLabel 11050 9300 2    50   Input ~ 0
TOGGLE7
Text GLabel 11050 9400 2    50   Input ~ 0
TOGGLE8
Wire Wire Line
	11050 7650 11400 7650
Connection ~ 11400 7650
Wire Wire Line
	11400 7650 11400 7550
Wire Wire Line
	11050 7750 11400 7750
Connection ~ 11400 7750
Wire Wire Line
	11400 7750 11400 7650
Wire Wire Line
	11050 7850 11400 7850
Connection ~ 11400 7850
Wire Wire Line
	11400 7850 11400 7750
Wire Wire Line
	11050 7950 11400 7950
Wire Wire Line
	11400 7950 11400 7850
$Comp
L Connector:Screw_Terminal_01x05 J2
U 1 1 61ED3DE2
P 10850 7750
F 0 "J2" H 10768 7325 50  0000 C CNN
F 1 "Screw_Terminal_01x05" H 10768 7416 50  0000 C CNN
F 2 "TerminalBlock:TerminalBlock_bornier-5_P5.08mm" H 10850 7750 50  0001 C CNN
F 3 "~" H 10850 7750 50  0001 C CNN
	1    10850 7750
	-1   0    0    1   
$EndComp
$Comp
L power:+3.3V #PWR0129
U 1 1 61F1C735
P 11700 7550
F 0 "#PWR0129" H 11700 7400 50  0001 C CNN
F 1 "+3.3V" V 11715 7678 50  0000 L CNN
F 2 "" H 11700 7550 50  0001 C CNN
F 3 "" H 11700 7550 50  0001 C CNN
	1    11700 7550
	0    1    1    0   
$EndComp
Wire Wire Line
	11050 7550 11400 7550
Connection ~ 11400 7550
Wire Wire Line
	11400 7550 11700 7550
NoConn ~ 11050 9500
NoConn ~ 11050 9600
Wire Wire Line
	8350 2450 8450 2450
Wire Wire Line
	8450 2450 8450 2650
Connection ~ 8450 2650
Wire Wire Line
	8350 2850 8450 2850
Wire Wire Line
	8450 2850 8450 2650
$Comp
L Device:LED_RGB_NISH D3
U 1 1 61B1E8B2
P 8100 2450
F 0 "D3" H 8150 2717 50  0000 C CNN
F 1 "LED_RGB_NISH" H 8150 2626 50  0000 C CNN
F 2 "LED_SMD:LED_WS2812_PLCC6_5.0x5.0mm_P1.6mm-NISH" H 8150 2300 50  0001 C CNN
F 3 "~" H 8150 2300 50  0001 C CNN
	1    8100 2450
	1    0    0    -1  
$EndComp
Text GLabel 7350 3950 0    50   Input ~ 0
LED2-R
Wire Wire Line
	7350 4150 7500 4150
$Comp
L Device:R R11
U 1 1 61B947BF
P 7650 3950
F 0 "R11" H 7720 3996 50  0000 L CNN
F 1 "120" H 7720 3905 50  0000 L CNN
F 2 "Resistor_SMD:R_1206_3216Metric" V 7580 3950 50  0001 C CNN
F 3 "~" H 7650 3950 50  0001 C CNN
	1    7650 3950
	0    -1   -1   0   
$EndComp
Wire Wire Line
	7800 4150 8050 4150
Text GLabel 7350 3750 0    50   Input ~ 0
LED2-G
Wire Wire Line
	7350 3950 7500 3950
$Comp
L Device:R R10
U 1 1 61B947C8
P 7650 4150
F 0 "R10" H 7720 4196 50  0000 L CNN
F 1 "35" H 7720 4105 50  0000 L CNN
F 2 "Resistor_SMD:R_1206_3216Metric" V 7580 4150 50  0001 C CNN
F 3 "~" H 7650 4150 50  0001 C CNN
	1    7650 4150
	0    -1   -1   0   
$EndComp
Wire Wire Line
	7800 3950 8050 3950
Text GLabel 7350 4150 0    50   Input ~ 0
LED2-B
Wire Wire Line
	7350 3750 7500 3750
$Comp
L Device:R R12
U 1 1 61B947D1
P 7650 3750
F 0 "R12" H 7720 3796 50  0000 L CNN
F 1 "35" H 7720 3705 50  0000 L CNN
F 2 "Resistor_SMD:R_1206_3216Metric" V 7580 3750 50  0001 C CNN
F 3 "~" H 7650 3750 50  0001 C CNN
	1    7650 3750
	0    -1   -1   0   
$EndComp
Wire Wire Line
	7800 3750 8050 3750
Wire Wire Line
	8450 3950 8550 3950
$Comp
L power:GND #PWR0126
U 1 1 61B947DF
P 8950 3950
F 0 "#PWR0126" H 8950 3700 50  0001 C CNN
F 1 "GND" V 8955 3822 50  0000 R CNN
F 2 "" H 8950 3950 50  0001 C CNN
F 3 "" H 8950 3950 50  0001 C CNN
	1    8950 3950
	0    -1   -1   0   
$EndComp
Wire Notes Line
	6900 3400 6900 4450
Wire Notes Line
	6900 4450 9400 4450
Wire Notes Line
	9400 4450 9400 3400
Wire Notes Line
	9400 3400 6900 3400
Text Notes 7000 3550 0    50   ~ 0
LED2 RGB
Text Notes 8950 4300 0    50   ~ 0
C784540
Wire Wire Line
	8450 3750 8550 3750
Wire Wire Line
	8550 3750 8550 3950
Connection ~ 8550 3950
Wire Wire Line
	8450 4150 8550 4150
Wire Wire Line
	8550 4150 8550 3950
$Comp
L Device:LED_RGB_NISH D4
U 1 1 61B947F1
P 8200 3750
F 0 "D4" H 8250 4017 50  0000 C CNN
F 1 "LED_RGB_NISH" H 8250 3926 50  0000 C CNN
F 2 "LED_SMD:LED_WS2812_PLCC6_5.0x5.0mm_P1.6mm-NISH" H 8250 3600 50  0001 C CNN
F 3 "~" H 8250 3600 50  0001 C CNN
	1    8200 3750
	1    0    0    -1  
$EndComp
Text GLabel 7400 5100 0    50   Input ~ 0
LED3-R
Wire Wire Line
	7400 5300 7550 5300
$Comp
L Device:R R15
U 1 1 61B9DF9D
P 7700 5100
F 0 "R15" H 7770 5146 50  0000 L CNN
F 1 "120" H 7770 5055 50  0000 L CNN
F 2 "Resistor_SMD:R_1206_3216Metric" V 7630 5100 50  0001 C CNN
F 3 "~" H 7700 5100 50  0001 C CNN
	1    7700 5100
	0    -1   -1   0   
$EndComp
Wire Wire Line
	7850 5300 8100 5300
Text GLabel 7400 4900 0    50   Input ~ 0
LED3-G
Wire Wire Line
	7400 5100 7550 5100
$Comp
L Device:R R14
U 1 1 61B9DFA6
P 7700 5300
F 0 "R14" H 7770 5346 50  0000 L CNN
F 1 "35" H 7770 5255 50  0000 L CNN
F 2 "Resistor_SMD:R_1206_3216Metric" V 7630 5300 50  0001 C CNN
F 3 "~" H 7700 5300 50  0001 C CNN
	1    7700 5300
	0    -1   -1   0   
$EndComp
Wire Wire Line
	7850 5100 8100 5100
Text GLabel 7400 5300 0    50   Input ~ 0
LED3-B
Wire Wire Line
	7400 4900 7550 4900
$Comp
L Device:R R16
U 1 1 61B9DFAF
P 7700 4900
F 0 "R16" H 7770 4946 50  0000 L CNN
F 1 "35" H 7770 4855 50  0000 L CNN
F 2 "Resistor_SMD:R_1206_3216Metric" V 7630 4900 50  0001 C CNN
F 3 "~" H 7700 4900 50  0001 C CNN
	1    7700 4900
	0    -1   -1   0   
$EndComp
Wire Wire Line
	7850 4900 8100 4900
Wire Wire Line
	8500 5100 8600 5100
$Comp
L power:GND #PWR0127
U 1 1 61B9DFBD
P 9000 5100
F 0 "#PWR0127" H 9000 4850 50  0001 C CNN
F 1 "GND" V 9005 4972 50  0000 R CNN
F 2 "" H 9000 5100 50  0001 C CNN
F 3 "" H 9000 5100 50  0001 C CNN
	1    9000 5100
	0    -1   -1   0   
$EndComp
Wire Notes Line
	6950 4550 6950 5600
Wire Notes Line
	6950 5600 9450 5600
Wire Notes Line
	9450 5600 9450 4550
Wire Notes Line
	9450 4550 6950 4550
Text Notes 7050 4700 0    50   ~ 0
LED3 RGB
Text Notes 9000 5450 0    50   ~ 0
C784540
Wire Wire Line
	8500 4900 8600 4900
Wire Wire Line
	8600 4900 8600 5100
Connection ~ 8600 5100
Wire Wire Line
	8500 5300 8600 5300
Wire Wire Line
	8600 5300 8600 5100
$Comp
L Device:LED_RGB_NISH D5
U 1 1 61B9DFCF
P 8250 4900
F 0 "D5" H 8300 5167 50  0000 C CNN
F 1 "LED_RGB_NISH" H 8300 5076 50  0000 C CNN
F 2 "LED_SMD:LED_WS2812_PLCC6_5.0x5.0mm_P1.6mm-NISH" H 8300 4750 50  0001 C CNN
F 3 "~" H 8300 4750 50  0001 C CNN
	1    8250 4900
	1    0    0    -1  
$EndComp
Text GLabel 7550 6300 0    50   Input ~ 0
LED4-R
Wire Wire Line
	7550 6500 7700 6500
$Comp
L Device:R R19
U 1 1 61BA9A38
P 7850 6300
F 0 "R19" H 7920 6346 50  0000 L CNN
F 1 "120" H 7920 6255 50  0000 L CNN
F 2 "Resistor_SMD:R_1206_3216Metric" V 7780 6300 50  0001 C CNN
F 3 "~" H 7850 6300 50  0001 C CNN
	1    7850 6300
	0    -1   -1   0   
$EndComp
Wire Wire Line
	8000 6500 8250 6500
Text GLabel 7550 6100 0    50   Input ~ 0
LED4-G
Wire Wire Line
	7550 6300 7700 6300
$Comp
L Device:R R18
U 1 1 61BA9A41
P 7850 6500
F 0 "R18" H 7920 6546 50  0000 L CNN
F 1 "35" H 7920 6455 50  0000 L CNN
F 2 "Resistor_SMD:R_1206_3216Metric" V 7780 6500 50  0001 C CNN
F 3 "~" H 7850 6500 50  0001 C CNN
	1    7850 6500
	0    -1   -1   0   
$EndComp
Wire Wire Line
	8000 6300 8250 6300
Text GLabel 7550 6500 0    50   Input ~ 0
LED4-B
Wire Wire Line
	7550 6100 7700 6100
$Comp
L Device:R R20
U 1 1 61BA9A4A
P 7850 6100
F 0 "R20" H 7920 6146 50  0000 L CNN
F 1 "35" H 7920 6055 50  0000 L CNN
F 2 "Resistor_SMD:R_1206_3216Metric" V 7780 6100 50  0001 C CNN
F 3 "~" H 7850 6100 50  0001 C CNN
	1    7850 6100
	0    -1   -1   0   
$EndComp
Wire Wire Line
	8000 6100 8250 6100
Wire Wire Line
	8650 6300 8750 6300
$Comp
L power:GND #PWR0128
U 1 1 61BA9A58
P 9150 6300
F 0 "#PWR0128" H 9150 6050 50  0001 C CNN
F 1 "GND" V 9155 6172 50  0000 R CNN
F 2 "" H 9150 6300 50  0001 C CNN
F 3 "" H 9150 6300 50  0001 C CNN
	1    9150 6300
	0    -1   -1   0   
$EndComp
Wire Notes Line
	7100 5750 7100 6800
Wire Notes Line
	7100 6800 9600 6800
Wire Notes Line
	9600 6800 9600 5750
Wire Notes Line
	9600 5750 7100 5750
Text Notes 7200 5900 0    50   ~ 0
LED4 RGB
Text Notes 9150 6650 0    50   ~ 0
C784540
Wire Wire Line
	8650 6100 8750 6100
Wire Wire Line
	8750 6100 8750 6300
Connection ~ 8750 6300
Wire Wire Line
	8650 6500 8750 6500
Wire Wire Line
	8750 6500 8750 6300
$Comp
L Device:LED_RGB_NISH D6
U 1 1 61BA9A6A
P 8400 6100
F 0 "D6" H 8450 6367 50  0000 C CNN
F 1 "LED_RGB_NISH" H 8450 6276 50  0000 C CNN
F 2 "LED_SMD:LED_WS2812_PLCC6_5.0x5.0mm_P1.6mm-NISH" H 8450 5950 50  0001 C CNN
F 3 "~" H 8450 5950 50  0001 C CNN
	1    8400 6100
	1    0    0    -1  
$EndComp
Wire Wire Line
	8550 3950 8950 3950
Wire Wire Line
	8600 5100 9000 5100
Wire Wire Line
	8750 6300 9150 6300
Wire Wire Line
	8450 2650 8850 2650
Text GLabel 9200 9000 2    50   Input ~ 0
SWDIO
$Comp
L Connector:Conn_01x20_Male J3
U 1 1 61D67151
P 9000 8400
F 0 "J3" H 9108 9481 50  0000 C CNN
F 1 "Conn_01x20_Male" H 9108 9390 50  0000 C CNN
F 2 "Connector_PinHeader_2.54mm:PinHeader_1x20_P2.54mm_Vertical" H 9000 8400 50  0001 C CNN
F 3 "~" H 9000 8400 50  0001 C CNN
	1    9000 8400
	1    0    0    -1  
$EndComp
Text GLabel 9200 9100 2    50   Input ~ 0
SWDCLK
Text GLabel 1550 3550 0    50   Input ~ 0
NRST
Text GLabel 9200 8900 2    50   Input ~ 0
NRST
Text GLabel 1400 1500 2    50   Input ~ 0
USB_D-
Text GLabel 1400 1400 2    50   Input ~ 0
USB_D+
Text Notes 810  880  0    50   ~ 0
C132560
$EndSCHEMATC
