(export (version D)
  (design
    (source C:\Users\nisha\Documents\projects\Electronics\FlightSim\flight_sim_controllerv1\flight_sim_controllerv1.sch)
    (date "12/11/21 12:15:19")
    (tool "Eeschema (5.1.10)-1")
    (sheet (number 1) (name /) (tstamps /)
      (title_block
        (title)
        (company)
        (rev)
        (date)
        (source flight_sim_controllerv1.sch)
        (comment (number 1) (value ""))
        (comment (number 2) (value ""))
        (comment (number 3) (value ""))
        (comment (number 4) (value "")))))
  (components
    (comp (ref J4)
      (value USB_B_Micro)
      (footprint Connector_USB:USB_Micro-B_Molex_47346-0001)
      (datasheet ~)
      (libsource (lib Connector) (part USB_B_Micro) (description "USB Micro Type B connector"))
      (sheetpath (names /) (tstamps /))
      (tstamp 61A3E989))
    (comp (ref C2)
      (value 1u)
      (footprint Capacitor_SMD:C_1206_3216Metric)
      (datasheet ~)
      (libsource (lib Device) (part C) (description "Unpolarized capacitor"))
      (sheetpath (names /) (tstamps /))
      (tstamp 61A7B574))
    (comp (ref C1)
      (value 1u)
      (footprint Capacitor_SMD:C_1206_3216Metric)
      (datasheet ~)
      (libsource (lib Device) (part C) (description "Unpolarized capacitor"))
      (sheetpath (names /) (tstamps /))
      (tstamp 61A86B7F))
    (comp (ref U1)
      (value "XC6206P332MR - 3V")
      (footprint Package_TO_SOT_SMD:SOT-23)
      (datasheet https://www.torexsemi.com/file/xc6206/XC6206.pdf)
      (libsource (lib Regulator_Linear) (part XC6206PxxxMR) (description "Positive 60-250mA Low Dropout Regulator, Fixed Output, SOT-23"))
      (sheetpath (names /) (tstamps /))
      (tstamp 61A50004))
    (comp (ref D1)
      (value GREEN)
      (footprint LED_SMD:LED_0805_2012Metric)
      (datasheet ~)
      (libsource (lib Device) (part LED) (description "Light emitting diode"))
      (sheetpath (names /) (tstamps /))
      (tstamp 61A9A935))
    (comp (ref R1)
      (value 1k5)
      (footprint Resistor_SMD:R_1206_3216Metric)
      (datasheet ~)
      (libsource (lib Device) (part R) (description Resistor))
      (sheetpath (names /) (tstamps /))
      (tstamp 61A9C090))
    (comp (ref FB1)
      (value 100R)
      (footprint Ferrite_THT:LairdTech_28C0236-0JW-10)
      (datasheet ~)
      (libsource (lib Device) (part Ferrite_Bead) (description "Ferrite bead"))
      (sheetpath (names /) (tstamps /))
      (tstamp 61AA426C))
    (comp (ref C5)
      (value 100nF)
      (footprint Capacitor_SMD:C_1206_3216Metric)
      (datasheet ~)
      (libsource (lib Device) (part C) (description "Unpolarized capacitor"))
      (sheetpath (names /) (tstamps /))
      (tstamp 61AFB1D3))
    (comp (ref C6)
      (value 1uF)
      (footprint Capacitor_SMD:C_1206_3216Metric)
      (datasheet ~)
      (libsource (lib Device) (part C) (description "Unpolarized capacitor"))
      (sheetpath (names /) (tstamps /))
      (tstamp 61B043B8))
    (comp (ref C7)
      (value 100nF)
      (footprint Capacitor_SMD:C_1206_3216Metric)
      (datasheet ~)
      (libsource (lib Device) (part C) (description "Unpolarized capacitor"))
      (sheetpath (names /) (tstamps /))
      (tstamp 61B0FADC))
    (comp (ref C8)
      (value 100nF)
      (footprint Capacitor_SMD:C_1206_3216Metric)
      (datasheet ~)
      (libsource (lib Device) (part C) (description "Unpolarized capacitor"))
      (sheetpath (names /) (tstamps /))
      (tstamp 61B0FAE5))
    (comp (ref C9)
      (value 100nF)
      (footprint Capacitor_SMD:C_1206_3216Metric)
      (datasheet ~)
      (libsource (lib Device) (part C) (description "Unpolarized capacitor"))
      (sheetpath (names /) (tstamps /))
      (tstamp 61B120D3))
    (comp (ref C10)
      (value 100nF)
      (footprint Capacitor_SMD:C_1206_3216Metric)
      (datasheet ~)
      (libsource (lib Device) (part C) (description "Unpolarized capacitor"))
      (sheetpath (names /) (tstamps /))
      (tstamp 61B1395B))
    (comp (ref C11)
      (value 4.7uF)
      (footprint Capacitor_SMD:C_1206_3216Metric)
      (datasheet ~)
      (libsource (lib Device) (part C) (description "Unpolarized capacitor"))
      (sheetpath (names /) (tstamps /))
      (tstamp 61B14F99))
    (comp (ref D2)
      (value GREEN)
      (footprint LED_SMD:LED_0805_2012Metric)
      (datasheet ~)
      (libsource (lib Device) (part LED_ALT) (description "Light emitting diode, filled shape"))
      (sheetpath (names /) (tstamps /))
      (tstamp 61B42513))
    (comp (ref U4)
      (value "74HC595 - shift register toggle switch")
      (footprint Package_DIP:DIP-16_W7.62mm)
      (datasheet http://www.ti.com/lit/ds/symlink/sn74hc595.pdf)
      (libsource (lib 74xx) (part 74HC595) (description "8-bit serial in/out Shift Register 3-State Outputs"))
      (sheetpath (names /) (tstamps /))
      (tstamp 61A3DFFE))
    (comp (ref R3)
      (value 75)
      (footprint Resistor_SMD:R_1206_3216Metric)
      (datasheet ~)
      (libsource (lib Device) (part R) (description Resistor))
      (sheetpath (names /) (tstamps /))
      (tstamp 61B48B1E))
    (comp (ref R2)
      (value 10K)
      (footprint Resistor_SMD:R_1206_3216Metric)
      (datasheet ~)
      (libsource (lib Device) (part R) (description Resistor))
      (sheetpath (names /) (tstamps /))
      (tstamp 61B2D675))
    (comp (ref SW1)
      (value SW_Push)
      (footprint Button_Switch_SMD:SW_Push_1P1T-MP_NO_Horizontal_Alps_SKRTLAE010)
      (datasheet ~)
      (libsource (lib Switch) (part SW_Push) (description "Push button switch, generic, two pins"))
      (sheetpath (names /) (tstamps /))
      (tstamp 61B2161D))
    (comp (ref C4)
      (value 20pF)
      (footprint Capacitor_SMD:C_1206_3216Metric)
      (datasheet ~)
      (libsource (lib Device) (part C) (description "Unpolarized capacitor"))
      (sheetpath (names /) (tstamps /))
      (tstamp 61AE1660))
    (comp (ref C3)
      (value 20pF)
      (footprint Capacitor_SMD:C_1206_3216Metric)
      (datasheet ~)
      (libsource (lib Device) (part C) (description "Unpolarized capacitor"))
      (sheetpath (names /) (tstamps /))
      (tstamp 61ADD3F6))
    (comp (ref Y1)
      (value 16MHz)
      (footprint Crystal:Crystal_SMD_7050-2Pin_7.0x5.0mm)
      (datasheet ~)
      (libsource (lib Device) (part Crystal) (description "Two pin crystal"))
      (sheetpath (names /) (tstamps /))
      (tstamp 61AD0C47))
    (comp (ref U5)
      (value STM32F722RETx)
      (footprint Package_QFP:LQFP-64_10x10mm_P0.5mm)
      (datasheet http://www.st.com/st-web-ui/static/active/en/resource/technical/document/datasheet/DM00330506.pdf)
      (libsource (lib MCU_ST_STM32F7) (part STM32F722RETx) (description "ARM Cortex-M7 MCU, 512KB flash, 192KB RAM, 216MHz, 1.7-3.6V, 50 GPIO, LQFP-64"))
      (sheetpath (names /) (tstamps /))
      (tstamp 61A34C61))
    (comp (ref R4)
      (value 22)
      (footprint Resistor_SMD:R_1206_3216Metric)
      (datasheet ~)
      (libsource (lib Device) (part R) (description Resistor))
      (sheetpath (names /) (tstamps /))
      (tstamp 61B8509E))
    (comp (ref R5)
      (value 22)
      (footprint Resistor_SMD:R_1206_3216Metric)
      (datasheet ~)
      (libsource (lib Device) (part R) (description Resistor))
      (sheetpath (names /) (tstamps /))
      (tstamp 61B85C88))
    (comp (ref U2)
      (value "74HC595 LED driver 1")
      (footprint Package_DIP:DIP-16_W7.62mm)
      (datasheet http://www.ti.com/lit/ds/symlink/sn74hc595.pdf)
      (libsource (lib 74xx) (part 74HC595) (description "8-bit serial in/out Shift Register 3-State Outputs"))
      (sheetpath (names /) (tstamps /))
      (tstamp 61AE5840))
    (comp (ref U3)
      (value "74HC595 Led Driver 2")
      (footprint Package_DIP:DIP-16_W7.62mm)
      (datasheet http://www.ti.com/lit/ds/symlink/sn74hc595.pdf)
      (libsource (lib 74xx) (part 74HC595) (description "8-bit serial in/out Shift Register 3-State Outputs"))
      (sheetpath (names /) (tstamps /))
      (tstamp 61AE583A))
    (comp (ref R6)
      (value 120)
      (footprint Resistor_SMD:R_1206_3216Metric)
      (datasheet ~)
      (libsource (lib Device) (part R) (description Resistor))
      (sheetpath (names /) (tstamps /))
      (tstamp 61B64BE0))
    (comp (ref R7)
      (value 35)
      (footprint Resistor_SMD:R_1206_3216Metric)
      (datasheet ~)
      (libsource (lib Device) (part R) (description Resistor))
      (sheetpath (names /) (tstamps /))
      (tstamp 61B77E7C))
    (comp (ref R8)
      (value 35)
      (footprint Resistor_SMD:R_1206_3216Metric)
      (datasheet ~)
      (libsource (lib Device) (part R) (description Resistor))
      (sheetpath (names /) (tstamps /))
      (tstamp 61B7A97A))
    (comp (ref J1)
      (value Conn_01x20_Male)
      (footprint Connector_PinHeader_2.54mm:PinHeader_1x20_P2.54mm_Vertical)
      (datasheet ~)
      (libsource (lib Connector) (part Conn_01x20_Male) (description "Generic connector, single row, 01x20, script generated (kicad-library-utils/schlib/autogen/connector/)"))
      (sheetpath (names /) (tstamps /))
      (tstamp 61D34A39))
    (comp (ref J5)
      (value Screw_Terminal_01x05)
      (footprint TerminalBlock:TerminalBlock_bornier-5_P5.08mm)
      (datasheet ~)
      (libsource (lib Connector) (part Screw_Terminal_01x05) (description "Generic screw terminal, single row, 01x05, script generated (kicad-library-utils/schlib/autogen/connector/)"))
      (sheetpath (names /) (tstamps /))
      (tstamp 61ED67DD))
    (comp (ref J6)
      (value Screw_Terminal_01x05)
      (footprint TerminalBlock:TerminalBlock_bornier-5_P5.08mm)
      (datasheet ~)
      (libsource (lib Connector) (part Screw_Terminal_01x05) (description "Generic screw terminal, single row, 01x05, script generated (kicad-library-utils/schlib/autogen/connector/)"))
      (sheetpath (names /) (tstamps /))
      (tstamp 61EDC3D0))
    (comp (ref J2)
      (value Screw_Terminal_01x05)
      (footprint TerminalBlock:TerminalBlock_bornier-5_P5.08mm)
      (datasheet ~)
      (libsource (lib Connector) (part Screw_Terminal_01x05) (description "Generic screw terminal, single row, 01x05, script generated (kicad-library-utils/schlib/autogen/connector/)"))
      (sheetpath (names /) (tstamps /))
      (tstamp 61ED3DE2))
    (comp (ref D3)
      (value LED_RGB_NISH)
      (footprint LED_SMD:LED_WS2812_PLCC6_5.0x5.0mm_P1.6mm-NISH)
      (datasheet ~)
      (libsource (lib Device) (part LED_RGB_NISH) (description "RGB LED, 6 pin package"))
      (sheetpath (names /) (tstamps /))
      (tstamp 61B1E8B2))
    (comp (ref R11)
      (value 120)
      (footprint Resistor_SMD:R_1206_3216Metric)
      (datasheet ~)
      (libsource (lib Device) (part R) (description Resistor))
      (sheetpath (names /) (tstamps /))
      (tstamp 61B947BF))
    (comp (ref R10)
      (value 35)
      (footprint Resistor_SMD:R_1206_3216Metric)
      (datasheet ~)
      (libsource (lib Device) (part R) (description Resistor))
      (sheetpath (names /) (tstamps /))
      (tstamp 61B947C8))
    (comp (ref R12)
      (value 35)
      (footprint Resistor_SMD:R_1206_3216Metric)
      (datasheet ~)
      (libsource (lib Device) (part R) (description Resistor))
      (sheetpath (names /) (tstamps /))
      (tstamp 61B947D1))
    (comp (ref D4)
      (value LED_RGB_NISH)
      (footprint LED_SMD:LED_WS2812_PLCC6_5.0x5.0mm_P1.6mm-NISH)
      (datasheet ~)
      (libsource (lib Device) (part LED_RGB_NISH) (description "RGB LED, 6 pin package"))
      (sheetpath (names /) (tstamps /))
      (tstamp 61B947F1))
    (comp (ref R15)
      (value 120)
      (footprint Resistor_SMD:R_1206_3216Metric)
      (datasheet ~)
      (libsource (lib Device) (part R) (description Resistor))
      (sheetpath (names /) (tstamps /))
      (tstamp 61B9DF9D))
    (comp (ref R14)
      (value 35)
      (footprint Resistor_SMD:R_1206_3216Metric)
      (datasheet ~)
      (libsource (lib Device) (part R) (description Resistor))
      (sheetpath (names /) (tstamps /))
      (tstamp 61B9DFA6))
    (comp (ref R16)
      (value 35)
      (footprint Resistor_SMD:R_1206_3216Metric)
      (datasheet ~)
      (libsource (lib Device) (part R) (description Resistor))
      (sheetpath (names /) (tstamps /))
      (tstamp 61B9DFAF))
    (comp (ref D5)
      (value LED_RGB_NISH)
      (footprint LED_SMD:LED_WS2812_PLCC6_5.0x5.0mm_P1.6mm-NISH)
      (datasheet ~)
      (libsource (lib Device) (part LED_RGB_NISH) (description "RGB LED, 6 pin package"))
      (sheetpath (names /) (tstamps /))
      (tstamp 61B9DFCF))
    (comp (ref R19)
      (value 120)
      (footprint Resistor_SMD:R_1206_3216Metric)
      (datasheet ~)
      (libsource (lib Device) (part R) (description Resistor))
      (sheetpath (names /) (tstamps /))
      (tstamp 61BA9A38))
    (comp (ref R18)
      (value 35)
      (footprint Resistor_SMD:R_1206_3216Metric)
      (datasheet ~)
      (libsource (lib Device) (part R) (description Resistor))
      (sheetpath (names /) (tstamps /))
      (tstamp 61BA9A41))
    (comp (ref R20)
      (value 35)
      (footprint Resistor_SMD:R_1206_3216Metric)
      (datasheet ~)
      (libsource (lib Device) (part R) (description Resistor))
      (sheetpath (names /) (tstamps /))
      (tstamp 61BA9A4A))
    (comp (ref D6)
      (value LED_RGB_NISH)
      (footprint LED_SMD:LED_WS2812_PLCC6_5.0x5.0mm_P1.6mm-NISH)
      (datasheet ~)
      (libsource (lib Device) (part LED_RGB_NISH) (description "RGB LED, 6 pin package"))
      (sheetpath (names /) (tstamps /))
      (tstamp 61BA9A6A))
    (comp (ref J3)
      (value Conn_01x20_Male)
      (footprint Connector_PinHeader_2.54mm:PinHeader_1x20_P2.54mm_Vertical)
      (datasheet ~)
      (libsource (lib Connector) (part Conn_01x20_Male) (description "Generic connector, single row, 01x20, script generated (kicad-library-utils/schlib/autogen/connector/)"))
      (sheetpath (names /) (tstamps /))
      (tstamp 61D67151)))
  (libparts
    (libpart (lib 74xx) (part 74HC595)
      (aliases
        (alias 74LS595)
        (alias 74HCT595)
        (alias 74AHC595)
        (alias 74AHCT595))
      (description "8-bit serial in/out Shift Register 3-State Outputs")
      (docs http://www.ti.com/lit/ds/symlink/sn74hc595.pdf)
      (footprints
        (fp DIP*W7.62mm*)
        (fp SOIC*3.9x9.9mm*P1.27mm*)
        (fp TSSOP*4.4x5mm*P0.65mm*)
        (fp SOIC*5.3x10.2mm*P1.27mm*)
        (fp SOIC*7.5x10.3mm*P1.27mm*))
      (fields
        (field (name Reference) U)
        (field (name Value) 74HC595))
      (pins
        (pin (num 1) (name QB) (type 3state))
        (pin (num 2) (name QC) (type 3state))
        (pin (num 3) (name QD) (type 3state))
        (pin (num 4) (name QE) (type 3state))
        (pin (num 5) (name QF) (type 3state))
        (pin (num 6) (name QG) (type 3state))
        (pin (num 7) (name QH) (type 3state))
        (pin (num 8) (name GND) (type power_in))
        (pin (num 9) (name QH') (type output))
        (pin (num 10) (name ~SRCLR) (type input))
        (pin (num 11) (name SRCLK) (type input))
        (pin (num 12) (name RCLK) (type input))
        (pin (num 13) (name ~OE) (type input))
        (pin (num 14) (name SER) (type input))
        (pin (num 15) (name QA) (type 3state))
        (pin (num 16) (name VCC) (type power_in))))
    (libpart (lib Connector) (part Conn_01x20_Male)
      (description "Generic connector, single row, 01x20, script generated (kicad-library-utils/schlib/autogen/connector/)")
      (docs ~)
      (footprints
        (fp Connector*:*_1x??_*))
      (fields
        (field (name Reference) J)
        (field (name Value) Conn_01x20_Male))
      (pins
        (pin (num 1) (name Pin_1) (type passive))
        (pin (num 2) (name Pin_2) (type passive))
        (pin (num 3) (name Pin_3) (type passive))
        (pin (num 4) (name Pin_4) (type passive))
        (pin (num 5) (name Pin_5) (type passive))
        (pin (num 6) (name Pin_6) (type passive))
        (pin (num 7) (name Pin_7) (type passive))
        (pin (num 8) (name Pin_8) (type passive))
        (pin (num 9) (name Pin_9) (type passive))
        (pin (num 10) (name Pin_10) (type passive))
        (pin (num 11) (name Pin_11) (type passive))
        (pin (num 12) (name Pin_12) (type passive))
        (pin (num 13) (name Pin_13) (type passive))
        (pin (num 14) (name Pin_14) (type passive))
        (pin (num 15) (name Pin_15) (type passive))
        (pin (num 16) (name Pin_16) (type passive))
        (pin (num 17) (name Pin_17) (type passive))
        (pin (num 18) (name Pin_18) (type passive))
        (pin (num 19) (name Pin_19) (type passive))
        (pin (num 20) (name Pin_20) (type passive))))
    (libpart (lib Connector) (part Screw_Terminal_01x05)
      (description "Generic screw terminal, single row, 01x05, script generated (kicad-library-utils/schlib/autogen/connector/)")
      (docs ~)
      (footprints
        (fp TerminalBlock*:*))
      (fields
        (field (name Reference) J)
        (field (name Value) Screw_Terminal_01x05))
      (pins
        (pin (num 1) (name Pin_1) (type passive))
        (pin (num 2) (name Pin_2) (type passive))
        (pin (num 3) (name Pin_3) (type passive))
        (pin (num 4) (name Pin_4) (type passive))
        (pin (num 5) (name Pin_5) (type passive))))
    (libpart (lib Connector) (part USB_B_Micro)
      (aliases
        (alias USB_B_Mini))
      (description "USB Micro Type B connector")
      (docs ~)
      (footprints
        (fp USB*))
      (fields
        (field (name Reference) J)
        (field (name Value) USB_B_Micro))
      (pins
        (pin (num 1) (name VBUS) (type power_out))
        (pin (num 2) (name D-) (type BiDi))
        (pin (num 3) (name D+) (type BiDi))
        (pin (num 4) (name ID) (type passive))
        (pin (num 5) (name GND) (type power_out))
        (pin (num 6) (name Shield) (type passive))))
    (libpart (lib Device) (part C)
      (description "Unpolarized capacitor")
      (docs ~)
      (footprints
        (fp C_*))
      (fields
        (field (name Reference) C)
        (field (name Value) C))
      (pins
        (pin (num 1) (name ~) (type passive))
        (pin (num 2) (name ~) (type passive))))
    (libpart (lib Device) (part Crystal)
      (description "Two pin crystal")
      (docs ~)
      (footprints
        (fp Crystal*))
      (fields
        (field (name Reference) Y)
        (field (name Value) Crystal))
      (pins
        (pin (num 1) (name 1) (type passive))
        (pin (num 2) (name 2) (type passive))))
    (libpart (lib Device) (part Ferrite_Bead)
      (description "Ferrite bead")
      (docs ~)
      (footprints
        (fp Inductor_*)
        (fp L_*)
        (fp *Ferrite*))
      (fields
        (field (name Reference) FB)
        (field (name Value) Ferrite_Bead))
      (pins
        (pin (num 1) (name ~) (type passive))
        (pin (num 2) (name ~) (type passive))))
    (libpart (lib Device) (part LED)
      (description "Light emitting diode")
      (docs ~)
      (footprints
        (fp LED*)
        (fp LED_SMD:*)
        (fp LED_THT:*))
      (fields
        (field (name Reference) D)
        (field (name Value) LED))
      (pins
        (pin (num 1) (name K) (type passive))
        (pin (num 2) (name A) (type passive))))
    (libpart (lib Device) (part LED_ALT)
      (description "Light emitting diode, filled shape")
      (docs ~)
      (footprints
        (fp LED*)
        (fp LED_SMD:*)
        (fp LED_THT:*))
      (fields
        (field (name Reference) D)
        (field (name Value) LED_ALT))
      (pins
        (pin (num 1) (name K) (type passive))
        (pin (num 2) (name A) (type passive))))
    (libpart (lib Device) (part LED_RGB_NISH)
      (description "RGB LED, 6 pin package")
      (docs ~)
      (footprints
        (fp LED*)
        (fp LED_SMD:*)
        (fp LED_THT:*))
      (fields
        (field (name Reference) D)
        (field (name Value) LED_RGB_NISH))
      (pins
        (pin (num 1) (name BA) (type passive))
        (pin (num 2) (name GA) (type passive))
        (pin (num 3) (name RA) (type passive))
        (pin (num 4) (name RK) (type passive))
        (pin (num 5) (name GK) (type passive))
        (pin (num 6) (name BK) (type passive))))
    (libpart (lib Device) (part R)
      (description Resistor)
      (docs ~)
      (footprints
        (fp R_*))
      (fields
        (field (name Reference) R)
        (field (name Value) R))
      (pins
        (pin (num 1) (name ~) (type passive))
        (pin (num 2) (name ~) (type passive))))
    (libpart (lib MCU_ST_STM32F7) (part STM32F722RCTx)
      (aliases
        (alias STM32F722RETx))
      (description "ARM Cortex-M7 MCU, 256KB flash, 192KB RAM, 216MHz, 1.7-3.6V, 50 GPIO, LQFP-64")
      (docs http://www.st.com/st-web-ui/static/active/en/resource/technical/document/datasheet/DM00330506.pdf)
      (footprints
        (fp LQFP*10x10mm*P0.5mm*))
      (fields
        (field (name Reference) U)
        (field (name Value) STM32F722RCTx)
        (field (name Footprint) Package_QFP:LQFP-64_10x10mm_P0.5mm))
      (pins
        (pin (num 1) (name VBAT) (type power_in))
        (pin (num 2) (name PC13) (type BiDi))
        (pin (num 3) (name PC14) (type BiDi))
        (pin (num 4) (name PC15) (type BiDi))
        (pin (num 5) (name PH0) (type input))
        (pin (num 6) (name PH1) (type input))
        (pin (num 7) (name NRST) (type input))
        (pin (num 8) (name PC0) (type BiDi))
        (pin (num 9) (name PC1) (type BiDi))
        (pin (num 10) (name PC2) (type BiDi))
        (pin (num 11) (name PC3) (type BiDi))
        (pin (num 12) (name VSSA) (type power_in))
        (pin (num 13) (name VREF+) (type power_in))
        (pin (num 14) (name PA0) (type BiDi))
        (pin (num 15) (name PA1) (type BiDi))
        (pin (num 16) (name PA2) (type BiDi))
        (pin (num 17) (name PA3) (type BiDi))
        (pin (num 18) (name VSS) (type power_in))
        (pin (num 19) (name VDD) (type power_in))
        (pin (num 20) (name PA4) (type BiDi))
        (pin (num 21) (name PA5) (type BiDi))
        (pin (num 22) (name PA6) (type BiDi))
        (pin (num 23) (name PA7) (type BiDi))
        (pin (num 24) (name PC4) (type BiDi))
        (pin (num 25) (name PB0) (type BiDi))
        (pin (num 26) (name PB1) (type BiDi))
        (pin (num 27) (name PB2) (type BiDi))
        (pin (num 28) (name PB10) (type BiDi))
        (pin (num 29) (name PB11) (type BiDi))
        (pin (num 30) (name VCAP_1) (type power_in))
        (pin (num 31) (name VSS) (type power_in))
        (pin (num 32) (name VDD) (type power_in))
        (pin (num 33) (name PB12) (type BiDi))
        (pin (num 34) (name PB13) (type BiDi))
        (pin (num 35) (name PB14) (type BiDi))
        (pin (num 36) (name PB15) (type BiDi))
        (pin (num 37) (name PC6) (type BiDi))
        (pin (num 38) (name PC7) (type BiDi))
        (pin (num 39) (name PC8) (type BiDi))
        (pin (num 40) (name PC9) (type BiDi))
        (pin (num 41) (name PA8) (type BiDi))
        (pin (num 42) (name PA9) (type BiDi))
        (pin (num 43) (name PA10) (type BiDi))
        (pin (num 44) (name PA11) (type BiDi))
        (pin (num 45) (name PA12) (type BiDi))
        (pin (num 46) (name PA13) (type BiDi))
        (pin (num 47) (name VSS) (type power_in))
        (pin (num 48) (name VDD) (type power_in))
        (pin (num 49) (name PA14) (type BiDi))
        (pin (num 50) (name PA15) (type BiDi))
        (pin (num 51) (name PC10) (type BiDi))
        (pin (num 52) (name PC11) (type BiDi))
        (pin (num 53) (name PC12) (type BiDi))
        (pin (num 54) (name PD2) (type BiDi))
        (pin (num 55) (name PB3) (type BiDi))
        (pin (num 56) (name PB4) (type BiDi))
        (pin (num 57) (name PB5) (type BiDi))
        (pin (num 58) (name PB6) (type BiDi))
        (pin (num 59) (name PB7) (type BiDi))
        (pin (num 60) (name BOOT0) (type input))
        (pin (num 61) (name PB8) (type BiDi))
        (pin (num 62) (name PB9) (type BiDi))
        (pin (num 63) (name VSS) (type power_in))
        (pin (num 64) (name VDD) (type power_in))))
    (libpart (lib Regulator_Linear) (part APE8865N-12-HF-3)
      (aliases
        (alias APE8865N-15-HF-3)
        (alias APE8865N-16-HF-3)
        (alias APE8865N-17-HF-3)
        (alias APE8865N-18-HF-3)
        (alias APE8865N-19-HF-3)
        (alias APE8865N-20-HF-3)
        (alias APE8865N-21-HF-3)
        (alias APE8865N-22-HF-3)
        (alias APE8865N-23-HF-3)
        (alias APE8865N-24-HF-3)
        (alias APE8865N-25-HF-3)
        (alias APE8865N-26-HF-3)
        (alias APE8865N-27-HF-3)
        (alias APE8865N-28-HF-3)
        (alias APE8865N-29-HF-3)
        (alias APE8865N-30-HF-3)
        (alias APE8865N-31-HF-3)
        (alias APE8865N-32-HF-3)
        (alias APE8865N-33-HF-3)
        (alias AP2127N-1.0)
        (alias AP2127N-1.2)
        (alias AP2127N-1.5)
        (alias AP2127N-1.8)
        (alias AP2127N-2.5)
        (alias AP2127N-2.8)
        (alias AP2127N-3.0)
        (alias AP2127N-3.3)
        (alias XC6206PxxxMR))
      (description "300mA Low Dropout Voltage Regulator, Fixed Output 1.2V, SOT-23")
      (docs http://www.tme.eu/fr/Document/ced3461ed31ea70a3c416fb648e0cde7/APE8865-3.pdf)
      (footprints
        (fp SOT?23*))
      (fields
        (field (name Reference) U)
        (field (name Value) APE8865N-12-HF-3)
        (field (name Footprint) Package_TO_SOT_SMD:SOT-23))
      (pins
        (pin (num 1) (name GND) (type power_in))
        (pin (num 2) (name VO) (type power_out))
        (pin (num 3) (name VI) (type power_in))))
    (libpart (lib Switch) (part SW_Push)
      (description "Push button switch, generic, two pins")
      (docs ~)
      (fields
        (field (name Reference) SW)
        (field (name Value) SW_Push))
      (pins
        (pin (num 1) (name 1) (type passive))
        (pin (num 2) (name 2) (type passive)))))
  (libraries
    (library (logical 74xx)
      (uri "D:\\Program Files\\KiCad\\share\\kicad\\library/74xx.lib"))
    (library (logical Connector)
      (uri "D:\\Program Files\\KiCad\\share\\kicad\\library/Connector.lib"))
    (library (logical Device)
      (uri "D:\\Program Files\\KiCad\\share\\kicad\\library/Device.lib"))
    (library (logical MCU_ST_STM32F7)
      (uri "D:\\Program Files\\KiCad\\share\\kicad\\library/MCU_ST_STM32F7.lib"))
    (library (logical Regulator_Linear)
      (uri "D:\\Program Files\\KiCad\\share\\kicad\\library/Regulator_Linear.lib"))
    (library (logical Switch)
      (uri "D:\\Program Files\\KiCad\\share\\kicad\\library/Switch.lib")))
  (nets
    (net (code 1) (name PIN9)
      (node (ref U5) (pin 50))
      (node (ref J1) (pin 9)))
    (net (code 2) (name GND)
      (node (ref D6) (pin 6))
      (node (ref C1) (pin 2))
      (node (ref U5) (pin 12))
      (node (ref D6) (pin 5))
      (node (ref D6) (pin 4))
      (node (ref U1) (pin 1))
      (node (ref R3) (pin 2))
      (node (ref R1) (pin 2))
      (node (ref C3) (pin 2))
      (node (ref C2) (pin 2))
      (node (ref C5) (pin 2))
      (node (ref C6) (pin 2))
      (node (ref U5) (pin 47))
      (node (ref J4) (pin 5))
      (node (ref U5) (pin 31))
      (node (ref U5) (pin 18))
      (node (ref U5) (pin 63))
      (node (ref J3) (pin 20))
      (node (ref D5) (pin 4))
      (node (ref D5) (pin 5))
      (node (ref D5) (pin 6))
      (node (ref D3) (pin 6))
      (node (ref D3) (pin 5))
      (node (ref R2) (pin 2))
      (node (ref D4) (pin 6))
      (node (ref D4) (pin 5))
      (node (ref D4) (pin 4))
      (node (ref C7) (pin 2))
      (node (ref C8) (pin 2))
      (node (ref C10) (pin 2))
      (node (ref D3) (pin 4))
      (node (ref C9) (pin 2))
      (node (ref C11) (pin 2))
      (node (ref C4) (pin 2)))
    (net (code 3) (name +5V)
      (node (ref J3) (pin 19))
      (node (ref J4) (pin 1))
      (node (ref FB1) (pin 2)))
    (net (code 4) (name +3V3)
      (node (ref C11) (pin 1))
      (node (ref C7) (pin 1))
      (node (ref C8) (pin 1))
      (node (ref U4) (pin 16))
      (node (ref C9) (pin 1))
      (node (ref C5) (pin 1))
      (node (ref U1) (pin 2))
      (node (ref J2) (pin 1))
      (node (ref J2) (pin 2))
      (node (ref J2) (pin 3))
      (node (ref J2) (pin 4))
      (node (ref J2) (pin 5))
      (node (ref D1) (pin 2))
      (node (ref C2) (pin 1))
      (node (ref U3) (pin 16))
      (node (ref C10) (pin 1))
      (node (ref U4) (pin 10))
      (node (ref J3) (pin 18))
      (node (ref U2) (pin 16))
      (node (ref U3) (pin 10))
      (node (ref U5) (pin 64))
      (node (ref U5) (pin 48))
      (node (ref SW1) (pin 1))
      (node (ref C6) (pin 1))
      (node (ref U2) (pin 10))
      (node (ref U5) (pin 19))
      (node (ref U5) (pin 32)))
    (net (code 5) (name PIN8)
      (node (ref U5) (pin 43))
      (node (ref J1) (pin 8)))
    (net (code 6) (name "Net-(D3-Pad1)")
      (node (ref R8) (pin 2))
      (node (ref D3) (pin 1)))
    (net (code 7) (name LED3-R)
      (node (ref R15) (pin 1))
      (node (ref U3) (pin 2)))
    (net (code 8) (name LED4-B)
      (node (ref R18) (pin 1))
      (node (ref U3) (pin 3)))
    (net (code 9) (name LED4-G)
      (node (ref U3) (pin 4))
      (node (ref R20) (pin 1)))
    (net (code 10) (name LED4-R)
      (node (ref U3) (pin 5))
      (node (ref R19) (pin 1)))
    (net (code 11) (name "Net-(U3-Pad6)")
      (node (ref U3) (pin 6)))
    (net (code 12) (name "Net-(U3-Pad7)")
      (node (ref U3) (pin 7)))
    (net (code 13) (name "Net-(U3-Pad8)")
      (node (ref U3) (pin 8)))
    (net (code 14) (name "Net-(U3-Pad9)")
      (node (ref U3) (pin 9)))
    (net (code 15) (name "Net-(D3-Pad2)")
      (node (ref D3) (pin 2))
      (node (ref R6) (pin 2)))
    (net (code 16) (name "Net-(D3-Pad3)")
      (node (ref D3) (pin 3))
      (node (ref R7) (pin 2)))
    (net (code 17) (name PIN17)
      (node (ref U5) (pin 62))
      (node (ref J1) (pin 17)))
    (net (code 18) (name "Net-(U4-Pad9)")
      (node (ref U4) (pin 9)))
    (net (code 19) (name PIN1)
      (node (ref U5) (pin 15))
      (node (ref J1) (pin 1)))
    (net (code 20) (name PIN10)
      (node (ref J1) (pin 10))
      (node (ref U5) (pin 27)))
    (net (code 21) (name PIN11)
      (node (ref U5) (pin 55))
      (node (ref J1) (pin 11)))
    (net (code 22) (name PIN12)
      (node (ref J1) (pin 12))
      (node (ref U5) (pin 56)))
    (net (code 23) (name PIN13)
      (node (ref J1) (pin 13))
      (node (ref U5) (pin 57)))
    (net (code 24) (name PIN14)
      (node (ref J1) (pin 14))
      (node (ref U5) (pin 58)))
    (net (code 25) (name PIN15)
      (node (ref J1) (pin 15))
      (node (ref U5) (pin 59)))
    (net (code 26) (name PIN16)
      (node (ref U5) (pin 61))
      (node (ref J1) (pin 16)))
    (net (code 27) (name PIN18)
      (node (ref U5) (pin 29))
      (node (ref J1) (pin 18)))
    (net (code 28) (name PIN2)
      (node (ref U5) (pin 16))
      (node (ref J1) (pin 2)))
    (net (code 29) (name PIN3)
      (node (ref J1) (pin 3))
      (node (ref U5) (pin 17)))
    (net (code 30) (name PIN4)
      (node (ref J1) (pin 4))
      (node (ref U5) (pin 20)))
    (net (code 31) (name PIN5)
      (node (ref U5) (pin 22))
      (node (ref J1) (pin 5)))
    (net (code 32) (name PIN6)
      (node (ref J1) (pin 6))
      (node (ref U5) (pin 41)))
    (net (code 33) (name PIN7)
      (node (ref U5) (pin 42))
      (node (ref J1) (pin 7)))
    (net (code 34) (name "Net-(J6-Pad1)")
      (node (ref J6) (pin 1)))
    (net (code 35) (name "Net-(U2-Pad6)")
      (node (ref U2) (pin 6)))
    (net (code 36) (name "Net-(U2-Pad7)")
      (node (ref U2) (pin 7)))
    (net (code 37) (name "Net-(U2-Pad9)")
      (node (ref U2) (pin 9)))
    (net (code 38) (name "Net-(D6-Pad2)")
      (node (ref R19) (pin 2))
      (node (ref D6) (pin 2)))
    (net (code 39) (name "Net-(D6-Pad3)")
      (node (ref D6) (pin 3))
      (node (ref R18) (pin 2)))
    (net (code 40) (name "Net-(D6-Pad1)")
      (node (ref R20) (pin 2))
      (node (ref D6) (pin 1)))
    (net (code 41) (name "Net-(D5-Pad3)")
      (node (ref R14) (pin 2))
      (node (ref D5) (pin 3)))
    (net (code 42) (name "Net-(D5-Pad2)")
      (node (ref D5) (pin 2))
      (node (ref R15) (pin 2)))
    (net (code 43) (name "Net-(D5-Pad1)")
      (node (ref R16) (pin 2))
      (node (ref D5) (pin 1)))
    (net (code 44) (name PIN33)
      (node (ref J3) (pin 13))
      (node (ref U5) (pin 2)))
    (net (code 45) (name PIN34)
      (node (ref J3) (pin 14))
      (node (ref U5) (pin 3)))
    (net (code 46) (name SWDIO)
      (node (ref J3) (pin 16))
      (node (ref U5) (pin 46)))
    (net (code 47) (name SWDCLK)
      (node (ref U5) (pin 49))
      (node (ref J3) (pin 17)))
    (net (code 48) (name PIN32)
      (node (ref U5) (pin 53))
      (node (ref J3) (pin 12)))
    (net (code 49) (name PIN25)
      (node (ref U5) (pin 11))
      (node (ref J3) (pin 5)))
    (net (code 50) (name PIN26)
      (node (ref J3) (pin 6))
      (node (ref U5) (pin 37)))
    (net (code 51) (name PIN27)
      (node (ref J3) (pin 7))
      (node (ref U5) (pin 38)))
    (net (code 52) (name PIN28)
      (node (ref J3) (pin 8))
      (node (ref U5) (pin 39)))
    (net (code 53) (name PIN29)
      (node (ref J3) (pin 9))
      (node (ref U5) (pin 40)))
    (net (code 54) (name PIN30)
      (node (ref J3) (pin 10))
      (node (ref U5) (pin 51)))
    (net (code 55) (name PIN31)
      (node (ref U5) (pin 52))
      (node (ref J3) (pin 11)))
    (net (code 56) (name "Net-(J6-Pad2)")
      (node (ref J6) (pin 2)))
    (net (code 57) (name "Net-(D4-Pad1)")
      (node (ref R12) (pin 2))
      (node (ref D4) (pin 1)))
    (net (code 58) (name "Net-(D4-Pad3)")
      (node (ref R10) (pin 2))
      (node (ref D4) (pin 3)))
    (net (code 59) (name "Net-(D4-Pad2)")
      (node (ref R11) (pin 2))
      (node (ref D4) (pin 2)))
    (net (code 60) (name "Net-(D2-Pad1)")
      (node (ref D2) (pin 1))
      (node (ref R3) (pin 1)))
    (net (code 61) (name LED0)
      (node (ref D2) (pin 2))
      (node (ref U5) (pin 14)))
    (net (code 62) (name TOGGLE2)
      (node (ref J5) (pin 4))
      (node (ref U4) (pin 1)))
    (net (code 63) (name SPI2_SCK)
      (node (ref U5) (pin 28))
      (node (ref U4) (pin 11)))
    (net (code 64) (name U3_LATCH)
      (node (ref U4) (pin 12))
      (node (ref U5) (pin 26)))
    (net (code 65) (name "Net-(U4-Pad13)")
      (node (ref U4) (pin 13)))
    (net (code 66) (name SPI2_MISO)
      (node (ref U4) (pin 14))
      (node (ref U5) (pin 10)))
    (net (code 67) (name TOGGLE1)
      (node (ref J5) (pin 5))
      (node (ref U4) (pin 15)))
    (net (code 68) (name TOGGLE3)
      (node (ref U4) (pin 2))
      (node (ref J5) (pin 3)))
    (net (code 69) (name TOGGLE4)
      (node (ref J5) (pin 2))
      (node (ref U4) (pin 3)))
    (net (code 70) (name TOGGLE5)
      (node (ref U4) (pin 4))
      (node (ref J5) (pin 1)))
    (net (code 71) (name TOGGLE6)
      (node (ref U4) (pin 5))
      (node (ref J6) (pin 5)))
    (net (code 72) (name "Net-(R2-Pad1)")
      (node (ref U5) (pin 60))
      (node (ref R2) (pin 1))
      (node (ref SW1) (pin 2)))
    (net (code 73) (name TOGGLE7)
      (node (ref U4) (pin 6))
      (node (ref J6) (pin 4)))
    (net (code 74) (name TOGGLE8)
      (node (ref J6) (pin 3))
      (node (ref U4) (pin 7)))
    (net (code 75) (name "Net-(U4-Pad8)")
      (node (ref U4) (pin 8)))
    (net (code 76) (name "Net-(D1-Pad1)")
      (node (ref D1) (pin 1))
      (node (ref R1) (pin 1)))
    (net (code 77) (name "Net-(J4-Pad4)")
      (node (ref J4) (pin 4)))
    (net (code 78) (name "Net-(J4-Pad2)")
      (node (ref J4) (pin 2)))
    (net (code 79) (name "Net-(J4-Pad3)")
      (node (ref J4) (pin 3)))
    (net (code 80) (name "Net-(J4-Pad6)")
      (node (ref J4) (pin 6)))
    (net (code 81) (name USB_D+)
      (node (ref R5) (pin 2)))
    (net (code 82) (name USB_D-)
      (node (ref R4) (pin 1)))
    (net (code 83) (name VCC)
      (node (ref U1) (pin 3))
      (node (ref C1) (pin 1))
      (node (ref FB1) (pin 1)))
    (net (code 84) (name "Net-(R5-Pad1)")
      (node (ref R5) (pin 1))
      (node (ref U5) (pin 45)))
    (net (code 85) (name "Net-(R4-Pad2)")
      (node (ref R4) (pin 2))
      (node (ref U5) (pin 44)))
    (net (code 86) (name "Net-(U5-Pad13)")
      (node (ref U5) (pin 13)))
    (net (code 87) (name LED1-G)
      (node (ref R8) (pin 1))
      (node (ref U2) (pin 1)))
    (net (code 88) (name U1_LATCH)
      (node (ref U5) (pin 24))
      (node (ref U2) (pin 12)))
    (net (code 89) (name "Net-(U2-Pad13)")
      (node (ref U2) (pin 13)))
    (net (code 90) (name PIN35)
      (node (ref U5) (pin 4)))
    (net (code 91) (name SPI1_MOSI)
      (node (ref U2) (pin 14))
      (node (ref U5) (pin 23))
      (node (ref U3) (pin 14)))
    (net (code 92) (name "Net-(U5-Pad54)")
      (node (ref U5) (pin 54)))
    (net (code 93) (name "Net-(C4-Pad1)")
      (node (ref Y1) (pin 2))
      (node (ref U5) (pin 6))
      (node (ref C4) (pin 1)))
    (net (code 94) (name "Net-(U5-Pad1)")
      (node (ref U5) (pin 1)))
    (net (code 95) (name "Net-(U5-Pad30)")
      (node (ref U5) (pin 30)))
    (net (code 96) (name LED3-G)
      (node (ref U3) (pin 1))
      (node (ref R16) (pin 1)))
    (net (code 97) (name SPI1_SCK)
      (node (ref U3) (pin 11))
      (node (ref U5) (pin 21))
      (node (ref U2) (pin 11)))
    (net (code 98) (name U2_LATCH)
      (node (ref U3) (pin 12))
      (node (ref U5) (pin 25)))
    (net (code 99) (name "Net-(U3-Pad13)")
      (node (ref U3) (pin 13)))
    (net (code 100) (name LED3-B)
      (node (ref R14) (pin 1))
      (node (ref U3) (pin 15)))
    (net (code 101) (name LED1-B)
      (node (ref R7) (pin 1))
      (node (ref U2) (pin 15)))
    (net (code 102) (name LED1-R)
      (node (ref R6) (pin 1))
      (node (ref U2) (pin 2)))
    (net (code 103) (name LED2-B)
      (node (ref U2) (pin 3))
      (node (ref R10) (pin 1)))
    (net (code 104) (name LED2-G)
      (node (ref U2) (pin 4))
      (node (ref R12) (pin 1)))
    (net (code 105) (name LED2-R)
      (node (ref R11) (pin 1))
      (node (ref U2) (pin 5)))
    (net (code 106) (name "Net-(U2-Pad8)")
      (node (ref U2) (pin 8)))
    (net (code 107) (name "Net-(C3-Pad1)")
      (node (ref C3) (pin 1))
      (node (ref U5) (pin 5))
      (node (ref Y1) (pin 1)))
    (net (code 108) (name PIN19)
      (node (ref U5) (pin 33))
      (node (ref J1) (pin 19)))
    (net (code 109) (name PIN20)
      (node (ref J1) (pin 20))
      (node (ref U5) (pin 34)))
    (net (code 110) (name PIN21)
      (node (ref J3) (pin 1))
      (node (ref U5) (pin 35)))
    (net (code 111) (name PIN22)
      (node (ref U5) (pin 36))
      (node (ref J3) (pin 2)))
    (net (code 112) (name PIN23)
      (node (ref J3) (pin 3))
      (node (ref U5) (pin 8)))
    (net (code 113) (name PIN24)
      (node (ref J3) (pin 4))
      (node (ref U5) (pin 9)))
    (net (code 114) (name NRST)
      (node (ref J3) (pin 15))
      (node (ref U5) (pin 7)))))